%TF.GenerationSoftware,KiCad,Pcbnew,8.0.1+b2*%
%TF.CreationDate,2024-05-03T13:14:29+02:00*%
%TF.ProjectId,lfbrmr,6c666272-6d72-42e6-9b69-6361645f7063,rev?*%
%TF.SameCoordinates,Original*%
%TF.FileFunction,Drillmap*%
%TF.FilePolarity,Positive*%
%FSLAX45Y45*%
G04 Gerber Fmt 4.5, Leading zero omitted, Abs format (unit mm)*
G04 Created by KiCad (PCBNEW 8.0.1+b2) date 2024-05-03 13:14:29*
%MOMM*%
%LPD*%
G01*
G04 APERTURE LIST*
%ADD10C,0.050000*%
%ADD11C,0.200000*%
%ADD12C,0.100000*%
%ADD13C,0.140000*%
G04 APERTURE END LIST*
D10*
X20320000Y-13208000D02*
X13258800Y-13208000D01*
X13258800Y-6604000D01*
X20320000Y-6604000D01*
X20320000Y-13208000D01*
D11*
D12*
X14971000Y-11313400D02*
X15001000Y-11343400D01*
X15001000Y-11313400D02*
X14971000Y-11343400D01*
X15021800Y-10145000D02*
X15051800Y-10175000D01*
X15051800Y-10145000D02*
X15021800Y-10175000D01*
X15275800Y-9586200D02*
X15305800Y-9616200D01*
X15305800Y-9586200D02*
X15275800Y-9616200D01*
X15529800Y-10348200D02*
X15559800Y-10378200D01*
X15559800Y-10348200D02*
X15529800Y-10378200D01*
X15529800Y-10805400D02*
X15559800Y-10835400D01*
X15559800Y-10805400D02*
X15529800Y-10835400D01*
X15783800Y-11872200D02*
X15813800Y-11902200D01*
X15813800Y-11872200D02*
X15783800Y-11902200D01*
X16241000Y-11161000D02*
X16271000Y-11191000D01*
X16271000Y-11161000D02*
X16241000Y-11191000D01*
X16291800Y-10500600D02*
X16321800Y-10530600D01*
X16321800Y-10500600D02*
X16291800Y-10530600D01*
X17053800Y-9891000D02*
X17083800Y-9921000D01*
X17083800Y-9891000D02*
X17053800Y-9921000D01*
X17053800Y-11161000D02*
X17083800Y-11191000D01*
X17083800Y-11161000D02*
X17053800Y-11191000D01*
X17663400Y-9738600D02*
X17693400Y-9768600D01*
X17693400Y-9738600D02*
X17663400Y-9768600D01*
X18476200Y-10399000D02*
X18506200Y-10429000D01*
X18506200Y-10399000D02*
X18476200Y-10429000D01*
X18933400Y-10957800D02*
X18963400Y-10987800D01*
X18963400Y-10957800D02*
X18933400Y-10987800D01*
X19492200Y-10602200D02*
X19522200Y-10632200D01*
X19522200Y-10602200D02*
X19492200Y-10632200D01*
X14309800Y-9829800D02*
G75*
G02*
X14239800Y-9829800I-35000J0D01*
G01*
X14239800Y-9829800D02*
G75*
G02*
X14309800Y-9829800I35000J0D01*
G01*
X14309800Y-10591800D02*
G75*
G02*
X14239800Y-10591800I-35000J0D01*
G01*
X14239800Y-10591800D02*
G75*
G02*
X14309800Y-10591800I35000J0D01*
G01*
X14817800Y-9829800D02*
G75*
G02*
X14747800Y-9829800I-35000J0D01*
G01*
X14747800Y-9829800D02*
G75*
G02*
X14817800Y-9829800I35000J0D01*
G01*
X14817800Y-10591800D02*
G75*
G02*
X14747800Y-10591800I-35000J0D01*
G01*
X14747800Y-10591800D02*
G75*
G02*
X14817800Y-10591800I35000J0D01*
G01*
X15021000Y-11099800D02*
G75*
G02*
X14951000Y-11099800I-35000J0D01*
G01*
X14951000Y-11099800D02*
G75*
G02*
X15021000Y-11099800I35000J0D01*
G01*
X15021000Y-11861800D02*
G75*
G02*
X14951000Y-11861800I-35000J0D01*
G01*
X14951000Y-11861800D02*
G75*
G02*
X15021000Y-11861800I35000J0D01*
G01*
X15325800Y-9829800D02*
G75*
G02*
X15255800Y-9829800I-35000J0D01*
G01*
X15255800Y-9829800D02*
G75*
G02*
X15325800Y-9829800I35000J0D01*
G01*
X15325800Y-10591800D02*
G75*
G02*
X15255800Y-10591800I-35000J0D01*
G01*
X15255800Y-10591800D02*
G75*
G02*
X15325800Y-10591800I35000J0D01*
G01*
X15427400Y-11074400D02*
G75*
G02*
X15357400Y-11074400I-35000J0D01*
G01*
X15357400Y-11074400D02*
G75*
G02*
X15427400Y-11074400I35000J0D01*
G01*
X15427400Y-11836400D02*
G75*
G02*
X15357400Y-11836400I-35000J0D01*
G01*
X15357400Y-11836400D02*
G75*
G02*
X15427400Y-11836400I35000J0D01*
G01*
X15833800Y-9804400D02*
G75*
G02*
X15763800Y-9804400I-35000J0D01*
G01*
X15763800Y-9804400D02*
G75*
G02*
X15833800Y-9804400I35000J0D01*
G01*
X15833800Y-10566400D02*
G75*
G02*
X15763800Y-10566400I-35000J0D01*
G01*
X15763800Y-10566400D02*
G75*
G02*
X15833800Y-10566400I35000J0D01*
G01*
X16926000Y-9550400D02*
G75*
G02*
X16856000Y-9550400I-35000J0D01*
G01*
X16856000Y-9550400D02*
G75*
G02*
X16926000Y-9550400I35000J0D01*
G01*
X17688000Y-9550400D02*
G75*
G02*
X17618000Y-9550400I-35000J0D01*
G01*
X17618000Y-9550400D02*
G75*
G02*
X17688000Y-9550400I35000J0D01*
G01*
X18094400Y-9550400D02*
G75*
G02*
X18024400Y-9550400I-35000J0D01*
G01*
X18024400Y-9550400D02*
G75*
G02*
X18094400Y-9550400I35000J0D01*
G01*
X18856400Y-9550400D02*
G75*
G02*
X18786400Y-9550400I-35000J0D01*
G01*
X18786400Y-9550400D02*
G75*
G02*
X18856400Y-9550400I35000J0D01*
G01*
X18389600Y-9004900D02*
X18389600Y-9079900D01*
X18352100Y-9042400D02*
X18427100Y-9042400D01*
X18516600Y-9004900D02*
X18516600Y-9079900D01*
X18479100Y-9042400D02*
X18554100Y-9042400D01*
X18643600Y-9004900D02*
X18643600Y-9079900D01*
X18606100Y-9042400D02*
X18681100Y-9042400D01*
X18694400Y-10173300D02*
X18694400Y-10248300D01*
X18656900Y-10210800D02*
X18731900Y-10210800D01*
X18821400Y-10173300D02*
X18821400Y-10248300D01*
X18783900Y-10210800D02*
X18858900Y-10210800D01*
X18948400Y-10173300D02*
X18948400Y-10248300D01*
X18910900Y-10210800D02*
X18985900Y-10210800D01*
X14252284Y-11027485D02*
X14252284Y-10970916D01*
X14195715Y-10970916D01*
X14195715Y-11027485D01*
X14252284Y-11027485D01*
X14252284Y-11787484D02*
X14252284Y-11730915D01*
X14195715Y-11730915D01*
X14195715Y-11787484D01*
X14252284Y-11787484D01*
X15422684Y-12575884D02*
X15422684Y-12519315D01*
X15366115Y-12519315D01*
X15366115Y-12575884D01*
X15422684Y-12575884D01*
X16182684Y-12575884D02*
X16182684Y-12519315D01*
X16126115Y-12519315D01*
X16126115Y-12575884D01*
X16182684Y-12575884D01*
X17452685Y-10239085D02*
X17452685Y-10182516D01*
X17396116Y-10182516D01*
X17396116Y-10239085D01*
X17452685Y-10239085D01*
X17452685Y-10493085D02*
X17452685Y-10436516D01*
X17396116Y-10436516D01*
X17396116Y-10493085D01*
X17452685Y-10493085D01*
X17452685Y-10747085D02*
X17452685Y-10690516D01*
X17396116Y-10690516D01*
X17396116Y-10747085D01*
X17452685Y-10747085D01*
X17452685Y-11001085D02*
X17452685Y-10944516D01*
X17396116Y-10944516D01*
X17396116Y-11001085D01*
X17452685Y-11001085D01*
X18214685Y-10239085D02*
X18214685Y-10182516D01*
X18158116Y-10182516D01*
X18158116Y-10239085D01*
X18214685Y-10239085D01*
X18214685Y-10493085D02*
X18214685Y-10436516D01*
X18158116Y-10436516D01*
X18158116Y-10493085D01*
X18214685Y-10493085D01*
X18214685Y-10747085D02*
X18214685Y-10690516D01*
X18158116Y-10690516D01*
X18158116Y-10747085D01*
X18214685Y-10747085D01*
X18214685Y-11001085D02*
X18214685Y-10944516D01*
X18158116Y-10944516D01*
X18158116Y-11001085D01*
X18214685Y-11001085D01*
X13766800Y-10108400D02*
X13816800Y-10058400D01*
X13766800Y-10008400D01*
X13716800Y-10058400D01*
X13766800Y-10108400D01*
X13766800Y-10362400D02*
X13816800Y-10312400D01*
X13766800Y-10262400D01*
X13716800Y-10312400D01*
X13766800Y-10362400D01*
X15951200Y-11327600D02*
X16001200Y-11277600D01*
X15951200Y-11227600D01*
X15901200Y-11277600D01*
X15951200Y-11327600D01*
X15951200Y-11581600D02*
X16001200Y-11531600D01*
X15951200Y-11481600D01*
X15901200Y-11531600D01*
X15951200Y-11581600D01*
X17068800Y-11988000D02*
X17118800Y-11938000D01*
X17068800Y-11888000D01*
X17018800Y-11938000D01*
X17068800Y-11988000D01*
X17322800Y-7822400D02*
X17372800Y-7772400D01*
X17322800Y-7722400D01*
X17272800Y-7772400D01*
X17322800Y-7822400D01*
X17322800Y-11988000D02*
X17372800Y-11938000D01*
X17322800Y-11888000D01*
X17272800Y-11938000D01*
X17322800Y-11988000D01*
X17576800Y-7822400D02*
X17626800Y-7772400D01*
X17576800Y-7722400D01*
X17526800Y-7772400D01*
X17576800Y-7822400D01*
X17576800Y-11988000D02*
X17626800Y-11938000D01*
X17576800Y-11888000D01*
X17526800Y-11938000D01*
X17576800Y-11988000D01*
X18440400Y-7822400D02*
X18490400Y-7772400D01*
X18440400Y-7722400D01*
X18390400Y-7772400D01*
X18440400Y-7822400D01*
X18694400Y-7822400D02*
X18744400Y-7772400D01*
X18694400Y-7722400D01*
X18644400Y-7772400D01*
X18694400Y-7822400D01*
X18948400Y-11276800D02*
X18998400Y-11226800D01*
X18948400Y-11176800D01*
X18898400Y-11226800D01*
X18948400Y-11276800D01*
X18948400Y-11530800D02*
X18998400Y-11480800D01*
X18948400Y-11430800D01*
X18898400Y-11480800D01*
X18948400Y-11530800D01*
D13*
X15271600Y-8261200D02*
X15411600Y-8401200D01*
X15411600Y-8261200D02*
X15271600Y-8401200D01*
X15411600Y-8331200D02*
G75*
G02*
X15271600Y-8331200I-70000J0D01*
G01*
X15271600Y-8331200D02*
G75*
G02*
X15411600Y-8331200I70000J0D01*
G01*
X16236800Y-8972400D02*
X16376800Y-9112400D01*
X16376800Y-8972400D02*
X16236800Y-9112400D01*
X16376800Y-9042400D02*
G75*
G02*
X16236800Y-9042400I-70000J0D01*
G01*
X16236800Y-9042400D02*
G75*
G02*
X16376800Y-9042400I70000J0D01*
G01*
X16541600Y-8261200D02*
X16681600Y-8401200D01*
X16681600Y-8261200D02*
X16541600Y-8401200D01*
X16681600Y-8331200D02*
G75*
G02*
X16541600Y-8331200I-70000J0D01*
G01*
X16541600Y-8331200D02*
G75*
G02*
X16681600Y-8331200I70000J0D01*
G01*
X17303600Y-8261200D02*
X17443600Y-8401200D01*
X17443600Y-8261200D02*
X17303600Y-8401200D01*
X17443600Y-8331200D02*
G75*
G02*
X17303600Y-8331200I-70000J0D01*
G01*
X17303600Y-8331200D02*
G75*
G02*
X17443600Y-8331200I70000J0D01*
G01*
X17506800Y-8972400D02*
X17646800Y-9112400D01*
X17646800Y-8972400D02*
X17506800Y-9112400D01*
X17646800Y-9042400D02*
G75*
G02*
X17506800Y-9042400I-70000J0D01*
G01*
X17506800Y-9042400D02*
G75*
G02*
X17646800Y-9042400I70000J0D01*
G01*
X18573600Y-8261200D02*
X18713600Y-8401200D01*
X18713600Y-8261200D02*
X18573600Y-8401200D01*
X18713600Y-8331200D02*
G75*
G02*
X18573600Y-8331200I-70000J0D01*
G01*
X18573600Y-8331200D02*
G75*
G02*
X18713600Y-8331200I70000J0D01*
G01*
X19234000Y-8261200D02*
X19374000Y-8401200D01*
X19374000Y-8261200D02*
X19234000Y-8401200D01*
X19374000Y-8331200D02*
G75*
G02*
X19234000Y-8331200I-70000J0D01*
G01*
X19234000Y-8331200D02*
G75*
G02*
X19374000Y-8331200I70000J0D01*
G01*
X19234000Y-9531200D02*
X19374000Y-9671200D01*
X19374000Y-9531200D02*
X19234000Y-9671200D01*
X19374000Y-9601200D02*
G75*
G02*
X19234000Y-9601200I-70000J0D01*
G01*
X19234000Y-9601200D02*
G75*
G02*
X19374000Y-9601200I70000J0D01*
G01*
D11*
X13517077Y-13521984D02*
X13517077Y-13321984D01*
X13517077Y-13321984D02*
X13564696Y-13321984D01*
X13564696Y-13321984D02*
X13593267Y-13331508D01*
X13593267Y-13331508D02*
X13612315Y-13350555D01*
X13612315Y-13350555D02*
X13621839Y-13369603D01*
X13621839Y-13369603D02*
X13631362Y-13407698D01*
X13631362Y-13407698D02*
X13631362Y-13436269D01*
X13631362Y-13436269D02*
X13621839Y-13474365D01*
X13621839Y-13474365D02*
X13612315Y-13493412D01*
X13612315Y-13493412D02*
X13593267Y-13512460D01*
X13593267Y-13512460D02*
X13564696Y-13521984D01*
X13564696Y-13521984D02*
X13517077Y-13521984D01*
X13717077Y-13521984D02*
X13717077Y-13388650D01*
X13717077Y-13426746D02*
X13726601Y-13407698D01*
X13726601Y-13407698D02*
X13736124Y-13398174D01*
X13736124Y-13398174D02*
X13755172Y-13388650D01*
X13755172Y-13388650D02*
X13774220Y-13388650D01*
X13840886Y-13521984D02*
X13840886Y-13388650D01*
X13840886Y-13321984D02*
X13831362Y-13331508D01*
X13831362Y-13331508D02*
X13840886Y-13341031D01*
X13840886Y-13341031D02*
X13850410Y-13331508D01*
X13850410Y-13331508D02*
X13840886Y-13321984D01*
X13840886Y-13321984D02*
X13840886Y-13341031D01*
X13964696Y-13521984D02*
X13945648Y-13512460D01*
X13945648Y-13512460D02*
X13936124Y-13493412D01*
X13936124Y-13493412D02*
X13936124Y-13321984D01*
X14069458Y-13521984D02*
X14050410Y-13512460D01*
X14050410Y-13512460D02*
X14040886Y-13493412D01*
X14040886Y-13493412D02*
X14040886Y-13321984D01*
X14298029Y-13521984D02*
X14298029Y-13321984D01*
X14298029Y-13321984D02*
X14364696Y-13464841D01*
X14364696Y-13464841D02*
X14431362Y-13321984D01*
X14431362Y-13321984D02*
X14431362Y-13521984D01*
X14612315Y-13521984D02*
X14612315Y-13417222D01*
X14612315Y-13417222D02*
X14602791Y-13398174D01*
X14602791Y-13398174D02*
X14583743Y-13388650D01*
X14583743Y-13388650D02*
X14545648Y-13388650D01*
X14545648Y-13388650D02*
X14526601Y-13398174D01*
X14612315Y-13512460D02*
X14593267Y-13521984D01*
X14593267Y-13521984D02*
X14545648Y-13521984D01*
X14545648Y-13521984D02*
X14526601Y-13512460D01*
X14526601Y-13512460D02*
X14517077Y-13493412D01*
X14517077Y-13493412D02*
X14517077Y-13474365D01*
X14517077Y-13474365D02*
X14526601Y-13455317D01*
X14526601Y-13455317D02*
X14545648Y-13445793D01*
X14545648Y-13445793D02*
X14593267Y-13445793D01*
X14593267Y-13445793D02*
X14612315Y-13436269D01*
X14707553Y-13388650D02*
X14707553Y-13588650D01*
X14707553Y-13398174D02*
X14726601Y-13388650D01*
X14726601Y-13388650D02*
X14764696Y-13388650D01*
X14764696Y-13388650D02*
X14783743Y-13398174D01*
X14783743Y-13398174D02*
X14793267Y-13407698D01*
X14793267Y-13407698D02*
X14802791Y-13426746D01*
X14802791Y-13426746D02*
X14802791Y-13483888D01*
X14802791Y-13483888D02*
X14793267Y-13502936D01*
X14793267Y-13502936D02*
X14783743Y-13512460D01*
X14783743Y-13512460D02*
X14764696Y-13521984D01*
X14764696Y-13521984D02*
X14726601Y-13521984D01*
X14726601Y-13521984D02*
X14707553Y-13512460D01*
X14888505Y-13502936D02*
X14898029Y-13512460D01*
X14898029Y-13512460D02*
X14888505Y-13521984D01*
X14888505Y-13521984D02*
X14878982Y-13512460D01*
X14878982Y-13512460D02*
X14888505Y-13502936D01*
X14888505Y-13502936D02*
X14888505Y-13521984D01*
X14888505Y-13398174D02*
X14898029Y-13407698D01*
X14898029Y-13407698D02*
X14888505Y-13417222D01*
X14888505Y-13417222D02*
X14878982Y-13407698D01*
X14878982Y-13407698D02*
X14888505Y-13398174D01*
X14888505Y-13398174D02*
X14888505Y-13417222D01*
D12*
X13226300Y-13835500D02*
X13256300Y-13865500D01*
X13256300Y-13835500D02*
X13226300Y-13865500D01*
D11*
X13555172Y-13741984D02*
X13574220Y-13741984D01*
X13574220Y-13741984D02*
X13593267Y-13751508D01*
X13593267Y-13751508D02*
X13602791Y-13761031D01*
X13602791Y-13761031D02*
X13612315Y-13780079D01*
X13612315Y-13780079D02*
X13621839Y-13818174D01*
X13621839Y-13818174D02*
X13621839Y-13865793D01*
X13621839Y-13865793D02*
X13612315Y-13903888D01*
X13612315Y-13903888D02*
X13602791Y-13922936D01*
X13602791Y-13922936D02*
X13593267Y-13932460D01*
X13593267Y-13932460D02*
X13574220Y-13941984D01*
X13574220Y-13941984D02*
X13555172Y-13941984D01*
X13555172Y-13941984D02*
X13536124Y-13932460D01*
X13536124Y-13932460D02*
X13526601Y-13922936D01*
X13526601Y-13922936D02*
X13517077Y-13903888D01*
X13517077Y-13903888D02*
X13507553Y-13865793D01*
X13507553Y-13865793D02*
X13507553Y-13818174D01*
X13507553Y-13818174D02*
X13517077Y-13780079D01*
X13517077Y-13780079D02*
X13526601Y-13761031D01*
X13526601Y-13761031D02*
X13536124Y-13751508D01*
X13536124Y-13751508D02*
X13555172Y-13741984D01*
X13707553Y-13922936D02*
X13717077Y-13932460D01*
X13717077Y-13932460D02*
X13707553Y-13941984D01*
X13707553Y-13941984D02*
X13698029Y-13932460D01*
X13698029Y-13932460D02*
X13707553Y-13922936D01*
X13707553Y-13922936D02*
X13707553Y-13941984D01*
X13783743Y-13741984D02*
X13907553Y-13741984D01*
X13907553Y-13741984D02*
X13840886Y-13818174D01*
X13840886Y-13818174D02*
X13869458Y-13818174D01*
X13869458Y-13818174D02*
X13888505Y-13827698D01*
X13888505Y-13827698D02*
X13898029Y-13837222D01*
X13898029Y-13837222D02*
X13907553Y-13856269D01*
X13907553Y-13856269D02*
X13907553Y-13903888D01*
X13907553Y-13903888D02*
X13898029Y-13922936D01*
X13898029Y-13922936D02*
X13888505Y-13932460D01*
X13888505Y-13932460D02*
X13869458Y-13941984D01*
X13869458Y-13941984D02*
X13812315Y-13941984D01*
X13812315Y-13941984D02*
X13793267Y-13932460D01*
X13793267Y-13932460D02*
X13783743Y-13922936D01*
X14031362Y-13741984D02*
X14050410Y-13741984D01*
X14050410Y-13741984D02*
X14069458Y-13751508D01*
X14069458Y-13751508D02*
X14078982Y-13761031D01*
X14078982Y-13761031D02*
X14088505Y-13780079D01*
X14088505Y-13780079D02*
X14098029Y-13818174D01*
X14098029Y-13818174D02*
X14098029Y-13865793D01*
X14098029Y-13865793D02*
X14088505Y-13903888D01*
X14088505Y-13903888D02*
X14078982Y-13922936D01*
X14078982Y-13922936D02*
X14069458Y-13932460D01*
X14069458Y-13932460D02*
X14050410Y-13941984D01*
X14050410Y-13941984D02*
X14031362Y-13941984D01*
X14031362Y-13941984D02*
X14012315Y-13932460D01*
X14012315Y-13932460D02*
X14002791Y-13922936D01*
X14002791Y-13922936D02*
X13993267Y-13903888D01*
X13993267Y-13903888D02*
X13983743Y-13865793D01*
X13983743Y-13865793D02*
X13983743Y-13818174D01*
X13983743Y-13818174D02*
X13993267Y-13780079D01*
X13993267Y-13780079D02*
X14002791Y-13761031D01*
X14002791Y-13761031D02*
X14012315Y-13751508D01*
X14012315Y-13751508D02*
X14031362Y-13741984D01*
X14221839Y-13741984D02*
X14240886Y-13741984D01*
X14240886Y-13741984D02*
X14259934Y-13751508D01*
X14259934Y-13751508D02*
X14269458Y-13761031D01*
X14269458Y-13761031D02*
X14278982Y-13780079D01*
X14278982Y-13780079D02*
X14288505Y-13818174D01*
X14288505Y-13818174D02*
X14288505Y-13865793D01*
X14288505Y-13865793D02*
X14278982Y-13903888D01*
X14278982Y-13903888D02*
X14269458Y-13922936D01*
X14269458Y-13922936D02*
X14259934Y-13932460D01*
X14259934Y-13932460D02*
X14240886Y-13941984D01*
X14240886Y-13941984D02*
X14221839Y-13941984D01*
X14221839Y-13941984D02*
X14202791Y-13932460D01*
X14202791Y-13932460D02*
X14193267Y-13922936D01*
X14193267Y-13922936D02*
X14183743Y-13903888D01*
X14183743Y-13903888D02*
X14174220Y-13865793D01*
X14174220Y-13865793D02*
X14174220Y-13818174D01*
X14174220Y-13818174D02*
X14183743Y-13780079D01*
X14183743Y-13780079D02*
X14193267Y-13761031D01*
X14193267Y-13761031D02*
X14202791Y-13751508D01*
X14202791Y-13751508D02*
X14221839Y-13741984D01*
X14374220Y-13941984D02*
X14374220Y-13808650D01*
X14374220Y-13827698D02*
X14383743Y-13818174D01*
X14383743Y-13818174D02*
X14402791Y-13808650D01*
X14402791Y-13808650D02*
X14431363Y-13808650D01*
X14431363Y-13808650D02*
X14450410Y-13818174D01*
X14450410Y-13818174D02*
X14459934Y-13837222D01*
X14459934Y-13837222D02*
X14459934Y-13941984D01*
X14459934Y-13837222D02*
X14469458Y-13818174D01*
X14469458Y-13818174D02*
X14488505Y-13808650D01*
X14488505Y-13808650D02*
X14517077Y-13808650D01*
X14517077Y-13808650D02*
X14536124Y-13818174D01*
X14536124Y-13818174D02*
X14545648Y-13837222D01*
X14545648Y-13837222D02*
X14545648Y-13941984D01*
X14640886Y-13941984D02*
X14640886Y-13808650D01*
X14640886Y-13827698D02*
X14650410Y-13818174D01*
X14650410Y-13818174D02*
X14669458Y-13808650D01*
X14669458Y-13808650D02*
X14698029Y-13808650D01*
X14698029Y-13808650D02*
X14717077Y-13818174D01*
X14717077Y-13818174D02*
X14726601Y-13837222D01*
X14726601Y-13837222D02*
X14726601Y-13941984D01*
X14726601Y-13837222D02*
X14736124Y-13818174D01*
X14736124Y-13818174D02*
X14755172Y-13808650D01*
X14755172Y-13808650D02*
X14783743Y-13808650D01*
X14783743Y-13808650D02*
X14802791Y-13818174D01*
X14802791Y-13818174D02*
X14812315Y-13837222D01*
X14812315Y-13837222D02*
X14812315Y-13941984D01*
X15202791Y-13732460D02*
X15031363Y-13989603D01*
X15459934Y-13741984D02*
X15478982Y-13741984D01*
X15478982Y-13741984D02*
X15498029Y-13751508D01*
X15498029Y-13751508D02*
X15507553Y-13761031D01*
X15507553Y-13761031D02*
X15517077Y-13780079D01*
X15517077Y-13780079D02*
X15526601Y-13818174D01*
X15526601Y-13818174D02*
X15526601Y-13865793D01*
X15526601Y-13865793D02*
X15517077Y-13903888D01*
X15517077Y-13903888D02*
X15507553Y-13922936D01*
X15507553Y-13922936D02*
X15498029Y-13932460D01*
X15498029Y-13932460D02*
X15478982Y-13941984D01*
X15478982Y-13941984D02*
X15459934Y-13941984D01*
X15459934Y-13941984D02*
X15440886Y-13932460D01*
X15440886Y-13932460D02*
X15431363Y-13922936D01*
X15431363Y-13922936D02*
X15421839Y-13903888D01*
X15421839Y-13903888D02*
X15412315Y-13865793D01*
X15412315Y-13865793D02*
X15412315Y-13818174D01*
X15412315Y-13818174D02*
X15421839Y-13780079D01*
X15421839Y-13780079D02*
X15431363Y-13761031D01*
X15431363Y-13761031D02*
X15440886Y-13751508D01*
X15440886Y-13751508D02*
X15459934Y-13741984D01*
X15612315Y-13922936D02*
X15621839Y-13932460D01*
X15621839Y-13932460D02*
X15612315Y-13941984D01*
X15612315Y-13941984D02*
X15602791Y-13932460D01*
X15602791Y-13932460D02*
X15612315Y-13922936D01*
X15612315Y-13922936D02*
X15612315Y-13941984D01*
X15745648Y-13741984D02*
X15764696Y-13741984D01*
X15764696Y-13741984D02*
X15783744Y-13751508D01*
X15783744Y-13751508D02*
X15793267Y-13761031D01*
X15793267Y-13761031D02*
X15802791Y-13780079D01*
X15802791Y-13780079D02*
X15812315Y-13818174D01*
X15812315Y-13818174D02*
X15812315Y-13865793D01*
X15812315Y-13865793D02*
X15802791Y-13903888D01*
X15802791Y-13903888D02*
X15793267Y-13922936D01*
X15793267Y-13922936D02*
X15783744Y-13932460D01*
X15783744Y-13932460D02*
X15764696Y-13941984D01*
X15764696Y-13941984D02*
X15745648Y-13941984D01*
X15745648Y-13941984D02*
X15726601Y-13932460D01*
X15726601Y-13932460D02*
X15717077Y-13922936D01*
X15717077Y-13922936D02*
X15707553Y-13903888D01*
X15707553Y-13903888D02*
X15698029Y-13865793D01*
X15698029Y-13865793D02*
X15698029Y-13818174D01*
X15698029Y-13818174D02*
X15707553Y-13780079D01*
X15707553Y-13780079D02*
X15717077Y-13761031D01*
X15717077Y-13761031D02*
X15726601Y-13751508D01*
X15726601Y-13751508D02*
X15745648Y-13741984D01*
X16002791Y-13941984D02*
X15888506Y-13941984D01*
X15945648Y-13941984D02*
X15945648Y-13741984D01*
X15945648Y-13741984D02*
X15926601Y-13770555D01*
X15926601Y-13770555D02*
X15907553Y-13789603D01*
X15907553Y-13789603D02*
X15888506Y-13799127D01*
X16193267Y-13941984D02*
X16078982Y-13941984D01*
X16136125Y-13941984D02*
X16136125Y-13741984D01*
X16136125Y-13741984D02*
X16117077Y-13770555D01*
X16117077Y-13770555D02*
X16098029Y-13789603D01*
X16098029Y-13789603D02*
X16078982Y-13799127D01*
X16307553Y-13827698D02*
X16288506Y-13818174D01*
X16288506Y-13818174D02*
X16278982Y-13808650D01*
X16278982Y-13808650D02*
X16269458Y-13789603D01*
X16269458Y-13789603D02*
X16269458Y-13780079D01*
X16269458Y-13780079D02*
X16278982Y-13761031D01*
X16278982Y-13761031D02*
X16288506Y-13751508D01*
X16288506Y-13751508D02*
X16307553Y-13741984D01*
X16307553Y-13741984D02*
X16345648Y-13741984D01*
X16345648Y-13741984D02*
X16364696Y-13751508D01*
X16364696Y-13751508D02*
X16374220Y-13761031D01*
X16374220Y-13761031D02*
X16383744Y-13780079D01*
X16383744Y-13780079D02*
X16383744Y-13789603D01*
X16383744Y-13789603D02*
X16374220Y-13808650D01*
X16374220Y-13808650D02*
X16364696Y-13818174D01*
X16364696Y-13818174D02*
X16345648Y-13827698D01*
X16345648Y-13827698D02*
X16307553Y-13827698D01*
X16307553Y-13827698D02*
X16288506Y-13837222D01*
X16288506Y-13837222D02*
X16278982Y-13846746D01*
X16278982Y-13846746D02*
X16269458Y-13865793D01*
X16269458Y-13865793D02*
X16269458Y-13903888D01*
X16269458Y-13903888D02*
X16278982Y-13922936D01*
X16278982Y-13922936D02*
X16288506Y-13932460D01*
X16288506Y-13932460D02*
X16307553Y-13941984D01*
X16307553Y-13941984D02*
X16345648Y-13941984D01*
X16345648Y-13941984D02*
X16364696Y-13932460D01*
X16364696Y-13932460D02*
X16374220Y-13922936D01*
X16374220Y-13922936D02*
X16383744Y-13903888D01*
X16383744Y-13903888D02*
X16383744Y-13865793D01*
X16383744Y-13865793D02*
X16374220Y-13846746D01*
X16374220Y-13846746D02*
X16364696Y-13837222D01*
X16364696Y-13837222D02*
X16345648Y-13827698D01*
X16459934Y-13741984D02*
X16459934Y-13780079D01*
X16536125Y-13741984D02*
X16536125Y-13780079D01*
X16831363Y-14018174D02*
X16821839Y-14008650D01*
X16821839Y-14008650D02*
X16802791Y-13980079D01*
X16802791Y-13980079D02*
X16793268Y-13961031D01*
X16793268Y-13961031D02*
X16783744Y-13932460D01*
X16783744Y-13932460D02*
X16774220Y-13884841D01*
X16774220Y-13884841D02*
X16774220Y-13846746D01*
X16774220Y-13846746D02*
X16783744Y-13799127D01*
X16783744Y-13799127D02*
X16793268Y-13770555D01*
X16793268Y-13770555D02*
X16802791Y-13751508D01*
X16802791Y-13751508D02*
X16821839Y-13722936D01*
X16821839Y-13722936D02*
X16831363Y-13713412D01*
X17012315Y-13941984D02*
X16898030Y-13941984D01*
X16955172Y-13941984D02*
X16955172Y-13741984D01*
X16955172Y-13741984D02*
X16936125Y-13770555D01*
X16936125Y-13770555D02*
X16917077Y-13789603D01*
X16917077Y-13789603D02*
X16898030Y-13799127D01*
X17183744Y-13808650D02*
X17183744Y-13941984D01*
X17136125Y-13732460D02*
X17088506Y-13875317D01*
X17088506Y-13875317D02*
X17212315Y-13875317D01*
X17440887Y-13941984D02*
X17440887Y-13741984D01*
X17526601Y-13941984D02*
X17526601Y-13837222D01*
X17526601Y-13837222D02*
X17517077Y-13818174D01*
X17517077Y-13818174D02*
X17498030Y-13808650D01*
X17498030Y-13808650D02*
X17469458Y-13808650D01*
X17469458Y-13808650D02*
X17450411Y-13818174D01*
X17450411Y-13818174D02*
X17440887Y-13827698D01*
X17650411Y-13941984D02*
X17631363Y-13932460D01*
X17631363Y-13932460D02*
X17621839Y-13922936D01*
X17621839Y-13922936D02*
X17612315Y-13903888D01*
X17612315Y-13903888D02*
X17612315Y-13846746D01*
X17612315Y-13846746D02*
X17621839Y-13827698D01*
X17621839Y-13827698D02*
X17631363Y-13818174D01*
X17631363Y-13818174D02*
X17650411Y-13808650D01*
X17650411Y-13808650D02*
X17678982Y-13808650D01*
X17678982Y-13808650D02*
X17698030Y-13818174D01*
X17698030Y-13818174D02*
X17707553Y-13827698D01*
X17707553Y-13827698D02*
X17717077Y-13846746D01*
X17717077Y-13846746D02*
X17717077Y-13903888D01*
X17717077Y-13903888D02*
X17707553Y-13922936D01*
X17707553Y-13922936D02*
X17698030Y-13932460D01*
X17698030Y-13932460D02*
X17678982Y-13941984D01*
X17678982Y-13941984D02*
X17650411Y-13941984D01*
X17831363Y-13941984D02*
X17812315Y-13932460D01*
X17812315Y-13932460D02*
X17802792Y-13913412D01*
X17802792Y-13913412D02*
X17802792Y-13741984D01*
X17983744Y-13932460D02*
X17964696Y-13941984D01*
X17964696Y-13941984D02*
X17926601Y-13941984D01*
X17926601Y-13941984D02*
X17907553Y-13932460D01*
X17907553Y-13932460D02*
X17898030Y-13913412D01*
X17898030Y-13913412D02*
X17898030Y-13837222D01*
X17898030Y-13837222D02*
X17907553Y-13818174D01*
X17907553Y-13818174D02*
X17926601Y-13808650D01*
X17926601Y-13808650D02*
X17964696Y-13808650D01*
X17964696Y-13808650D02*
X17983744Y-13818174D01*
X17983744Y-13818174D02*
X17993268Y-13837222D01*
X17993268Y-13837222D02*
X17993268Y-13856269D01*
X17993268Y-13856269D02*
X17898030Y-13875317D01*
X18069458Y-13932460D02*
X18088506Y-13941984D01*
X18088506Y-13941984D02*
X18126601Y-13941984D01*
X18126601Y-13941984D02*
X18145649Y-13932460D01*
X18145649Y-13932460D02*
X18155173Y-13913412D01*
X18155173Y-13913412D02*
X18155173Y-13903888D01*
X18155173Y-13903888D02*
X18145649Y-13884841D01*
X18145649Y-13884841D02*
X18126601Y-13875317D01*
X18126601Y-13875317D02*
X18098030Y-13875317D01*
X18098030Y-13875317D02*
X18078982Y-13865793D01*
X18078982Y-13865793D02*
X18069458Y-13846746D01*
X18069458Y-13846746D02*
X18069458Y-13837222D01*
X18069458Y-13837222D02*
X18078982Y-13818174D01*
X18078982Y-13818174D02*
X18098030Y-13808650D01*
X18098030Y-13808650D02*
X18126601Y-13808650D01*
X18126601Y-13808650D02*
X18145649Y-13818174D01*
X18221839Y-14018174D02*
X18231363Y-14008650D01*
X18231363Y-14008650D02*
X18250411Y-13980079D01*
X18250411Y-13980079D02*
X18259934Y-13961031D01*
X18259934Y-13961031D02*
X18269458Y-13932460D01*
X18269458Y-13932460D02*
X18278982Y-13884841D01*
X18278982Y-13884841D02*
X18278982Y-13846746D01*
X18278982Y-13846746D02*
X18269458Y-13799127D01*
X18269458Y-13799127D02*
X18259934Y-13770555D01*
X18259934Y-13770555D02*
X18250411Y-13751508D01*
X18250411Y-13751508D02*
X18231363Y-13722936D01*
X18231363Y-13722936D02*
X18221839Y-13713412D01*
D12*
X13256300Y-14114500D02*
G75*
G02*
X13186300Y-14114500I-35000J0D01*
G01*
X13186300Y-14114500D02*
G75*
G02*
X13256300Y-14114500I35000J0D01*
G01*
D11*
X13555172Y-14005984D02*
X13574220Y-14005984D01*
X13574220Y-14005984D02*
X13593267Y-14015508D01*
X13593267Y-14015508D02*
X13602791Y-14025031D01*
X13602791Y-14025031D02*
X13612315Y-14044079D01*
X13612315Y-14044079D02*
X13621839Y-14082174D01*
X13621839Y-14082174D02*
X13621839Y-14129793D01*
X13621839Y-14129793D02*
X13612315Y-14167888D01*
X13612315Y-14167888D02*
X13602791Y-14186936D01*
X13602791Y-14186936D02*
X13593267Y-14196460D01*
X13593267Y-14196460D02*
X13574220Y-14205984D01*
X13574220Y-14205984D02*
X13555172Y-14205984D01*
X13555172Y-14205984D02*
X13536124Y-14196460D01*
X13536124Y-14196460D02*
X13526601Y-14186936D01*
X13526601Y-14186936D02*
X13517077Y-14167888D01*
X13517077Y-14167888D02*
X13507553Y-14129793D01*
X13507553Y-14129793D02*
X13507553Y-14082174D01*
X13507553Y-14082174D02*
X13517077Y-14044079D01*
X13517077Y-14044079D02*
X13526601Y-14025031D01*
X13526601Y-14025031D02*
X13536124Y-14015508D01*
X13536124Y-14015508D02*
X13555172Y-14005984D01*
X13707553Y-14186936D02*
X13717077Y-14196460D01*
X13717077Y-14196460D02*
X13707553Y-14205984D01*
X13707553Y-14205984D02*
X13698029Y-14196460D01*
X13698029Y-14196460D02*
X13707553Y-14186936D01*
X13707553Y-14186936D02*
X13707553Y-14205984D01*
X13783743Y-14005984D02*
X13917077Y-14005984D01*
X13917077Y-14005984D02*
X13831362Y-14205984D01*
X14031362Y-14005984D02*
X14050410Y-14005984D01*
X14050410Y-14005984D02*
X14069458Y-14015508D01*
X14069458Y-14015508D02*
X14078982Y-14025031D01*
X14078982Y-14025031D02*
X14088505Y-14044079D01*
X14088505Y-14044079D02*
X14098029Y-14082174D01*
X14098029Y-14082174D02*
X14098029Y-14129793D01*
X14098029Y-14129793D02*
X14088505Y-14167888D01*
X14088505Y-14167888D02*
X14078982Y-14186936D01*
X14078982Y-14186936D02*
X14069458Y-14196460D01*
X14069458Y-14196460D02*
X14050410Y-14205984D01*
X14050410Y-14205984D02*
X14031362Y-14205984D01*
X14031362Y-14205984D02*
X14012315Y-14196460D01*
X14012315Y-14196460D02*
X14002791Y-14186936D01*
X14002791Y-14186936D02*
X13993267Y-14167888D01*
X13993267Y-14167888D02*
X13983743Y-14129793D01*
X13983743Y-14129793D02*
X13983743Y-14082174D01*
X13983743Y-14082174D02*
X13993267Y-14044079D01*
X13993267Y-14044079D02*
X14002791Y-14025031D01*
X14002791Y-14025031D02*
X14012315Y-14015508D01*
X14012315Y-14015508D02*
X14031362Y-14005984D01*
X14221839Y-14005984D02*
X14240886Y-14005984D01*
X14240886Y-14005984D02*
X14259934Y-14015508D01*
X14259934Y-14015508D02*
X14269458Y-14025031D01*
X14269458Y-14025031D02*
X14278982Y-14044079D01*
X14278982Y-14044079D02*
X14288505Y-14082174D01*
X14288505Y-14082174D02*
X14288505Y-14129793D01*
X14288505Y-14129793D02*
X14278982Y-14167888D01*
X14278982Y-14167888D02*
X14269458Y-14186936D01*
X14269458Y-14186936D02*
X14259934Y-14196460D01*
X14259934Y-14196460D02*
X14240886Y-14205984D01*
X14240886Y-14205984D02*
X14221839Y-14205984D01*
X14221839Y-14205984D02*
X14202791Y-14196460D01*
X14202791Y-14196460D02*
X14193267Y-14186936D01*
X14193267Y-14186936D02*
X14183743Y-14167888D01*
X14183743Y-14167888D02*
X14174220Y-14129793D01*
X14174220Y-14129793D02*
X14174220Y-14082174D01*
X14174220Y-14082174D02*
X14183743Y-14044079D01*
X14183743Y-14044079D02*
X14193267Y-14025031D01*
X14193267Y-14025031D02*
X14202791Y-14015508D01*
X14202791Y-14015508D02*
X14221839Y-14005984D01*
X14374220Y-14205984D02*
X14374220Y-14072650D01*
X14374220Y-14091698D02*
X14383743Y-14082174D01*
X14383743Y-14082174D02*
X14402791Y-14072650D01*
X14402791Y-14072650D02*
X14431363Y-14072650D01*
X14431363Y-14072650D02*
X14450410Y-14082174D01*
X14450410Y-14082174D02*
X14459934Y-14101222D01*
X14459934Y-14101222D02*
X14459934Y-14205984D01*
X14459934Y-14101222D02*
X14469458Y-14082174D01*
X14469458Y-14082174D02*
X14488505Y-14072650D01*
X14488505Y-14072650D02*
X14517077Y-14072650D01*
X14517077Y-14072650D02*
X14536124Y-14082174D01*
X14536124Y-14082174D02*
X14545648Y-14101222D01*
X14545648Y-14101222D02*
X14545648Y-14205984D01*
X14640886Y-14205984D02*
X14640886Y-14072650D01*
X14640886Y-14091698D02*
X14650410Y-14082174D01*
X14650410Y-14082174D02*
X14669458Y-14072650D01*
X14669458Y-14072650D02*
X14698029Y-14072650D01*
X14698029Y-14072650D02*
X14717077Y-14082174D01*
X14717077Y-14082174D02*
X14726601Y-14101222D01*
X14726601Y-14101222D02*
X14726601Y-14205984D01*
X14726601Y-14101222D02*
X14736124Y-14082174D01*
X14736124Y-14082174D02*
X14755172Y-14072650D01*
X14755172Y-14072650D02*
X14783743Y-14072650D01*
X14783743Y-14072650D02*
X14802791Y-14082174D01*
X14802791Y-14082174D02*
X14812315Y-14101222D01*
X14812315Y-14101222D02*
X14812315Y-14205984D01*
X15202791Y-13996460D02*
X15031363Y-14253603D01*
X15459934Y-14005984D02*
X15478982Y-14005984D01*
X15478982Y-14005984D02*
X15498029Y-14015508D01*
X15498029Y-14015508D02*
X15507553Y-14025031D01*
X15507553Y-14025031D02*
X15517077Y-14044079D01*
X15517077Y-14044079D02*
X15526601Y-14082174D01*
X15526601Y-14082174D02*
X15526601Y-14129793D01*
X15526601Y-14129793D02*
X15517077Y-14167888D01*
X15517077Y-14167888D02*
X15507553Y-14186936D01*
X15507553Y-14186936D02*
X15498029Y-14196460D01*
X15498029Y-14196460D02*
X15478982Y-14205984D01*
X15478982Y-14205984D02*
X15459934Y-14205984D01*
X15459934Y-14205984D02*
X15440886Y-14196460D01*
X15440886Y-14196460D02*
X15431363Y-14186936D01*
X15431363Y-14186936D02*
X15421839Y-14167888D01*
X15421839Y-14167888D02*
X15412315Y-14129793D01*
X15412315Y-14129793D02*
X15412315Y-14082174D01*
X15412315Y-14082174D02*
X15421839Y-14044079D01*
X15421839Y-14044079D02*
X15431363Y-14025031D01*
X15431363Y-14025031D02*
X15440886Y-14015508D01*
X15440886Y-14015508D02*
X15459934Y-14005984D01*
X15612315Y-14186936D02*
X15621839Y-14196460D01*
X15621839Y-14196460D02*
X15612315Y-14205984D01*
X15612315Y-14205984D02*
X15602791Y-14196460D01*
X15602791Y-14196460D02*
X15612315Y-14186936D01*
X15612315Y-14186936D02*
X15612315Y-14205984D01*
X15745648Y-14005984D02*
X15764696Y-14005984D01*
X15764696Y-14005984D02*
X15783744Y-14015508D01*
X15783744Y-14015508D02*
X15793267Y-14025031D01*
X15793267Y-14025031D02*
X15802791Y-14044079D01*
X15802791Y-14044079D02*
X15812315Y-14082174D01*
X15812315Y-14082174D02*
X15812315Y-14129793D01*
X15812315Y-14129793D02*
X15802791Y-14167888D01*
X15802791Y-14167888D02*
X15793267Y-14186936D01*
X15793267Y-14186936D02*
X15783744Y-14196460D01*
X15783744Y-14196460D02*
X15764696Y-14205984D01*
X15764696Y-14205984D02*
X15745648Y-14205984D01*
X15745648Y-14205984D02*
X15726601Y-14196460D01*
X15726601Y-14196460D02*
X15717077Y-14186936D01*
X15717077Y-14186936D02*
X15707553Y-14167888D01*
X15707553Y-14167888D02*
X15698029Y-14129793D01*
X15698029Y-14129793D02*
X15698029Y-14082174D01*
X15698029Y-14082174D02*
X15707553Y-14044079D01*
X15707553Y-14044079D02*
X15717077Y-14025031D01*
X15717077Y-14025031D02*
X15726601Y-14015508D01*
X15726601Y-14015508D02*
X15745648Y-14005984D01*
X15888506Y-14025031D02*
X15898029Y-14015508D01*
X15898029Y-14015508D02*
X15917077Y-14005984D01*
X15917077Y-14005984D02*
X15964696Y-14005984D01*
X15964696Y-14005984D02*
X15983744Y-14015508D01*
X15983744Y-14015508D02*
X15993267Y-14025031D01*
X15993267Y-14025031D02*
X16002791Y-14044079D01*
X16002791Y-14044079D02*
X16002791Y-14063127D01*
X16002791Y-14063127D02*
X15993267Y-14091698D01*
X15993267Y-14091698D02*
X15878982Y-14205984D01*
X15878982Y-14205984D02*
X16002791Y-14205984D01*
X16069458Y-14005984D02*
X16202791Y-14005984D01*
X16202791Y-14005984D02*
X16117077Y-14205984D01*
X16364696Y-14005984D02*
X16326601Y-14005984D01*
X16326601Y-14005984D02*
X16307553Y-14015508D01*
X16307553Y-14015508D02*
X16298029Y-14025031D01*
X16298029Y-14025031D02*
X16278982Y-14053603D01*
X16278982Y-14053603D02*
X16269458Y-14091698D01*
X16269458Y-14091698D02*
X16269458Y-14167888D01*
X16269458Y-14167888D02*
X16278982Y-14186936D01*
X16278982Y-14186936D02*
X16288506Y-14196460D01*
X16288506Y-14196460D02*
X16307553Y-14205984D01*
X16307553Y-14205984D02*
X16345648Y-14205984D01*
X16345648Y-14205984D02*
X16364696Y-14196460D01*
X16364696Y-14196460D02*
X16374220Y-14186936D01*
X16374220Y-14186936D02*
X16383744Y-14167888D01*
X16383744Y-14167888D02*
X16383744Y-14120269D01*
X16383744Y-14120269D02*
X16374220Y-14101222D01*
X16374220Y-14101222D02*
X16364696Y-14091698D01*
X16364696Y-14091698D02*
X16345648Y-14082174D01*
X16345648Y-14082174D02*
X16307553Y-14082174D01*
X16307553Y-14082174D02*
X16288506Y-14091698D01*
X16288506Y-14091698D02*
X16278982Y-14101222D01*
X16278982Y-14101222D02*
X16269458Y-14120269D01*
X16459934Y-14005984D02*
X16459934Y-14044079D01*
X16536125Y-14005984D02*
X16536125Y-14044079D01*
X16831363Y-14282174D02*
X16821839Y-14272650D01*
X16821839Y-14272650D02*
X16802791Y-14244079D01*
X16802791Y-14244079D02*
X16793268Y-14225031D01*
X16793268Y-14225031D02*
X16783744Y-14196460D01*
X16783744Y-14196460D02*
X16774220Y-14148841D01*
X16774220Y-14148841D02*
X16774220Y-14110746D01*
X16774220Y-14110746D02*
X16783744Y-14063127D01*
X16783744Y-14063127D02*
X16793268Y-14034555D01*
X16793268Y-14034555D02*
X16802791Y-14015508D01*
X16802791Y-14015508D02*
X16821839Y-13986936D01*
X16821839Y-13986936D02*
X16831363Y-13977412D01*
X17012315Y-14205984D02*
X16898030Y-14205984D01*
X16955172Y-14205984D02*
X16955172Y-14005984D01*
X16955172Y-14005984D02*
X16936125Y-14034555D01*
X16936125Y-14034555D02*
X16917077Y-14053603D01*
X16917077Y-14053603D02*
X16898030Y-14063127D01*
X17183744Y-14005984D02*
X17145649Y-14005984D01*
X17145649Y-14005984D02*
X17126601Y-14015508D01*
X17126601Y-14015508D02*
X17117077Y-14025031D01*
X17117077Y-14025031D02*
X17098030Y-14053603D01*
X17098030Y-14053603D02*
X17088506Y-14091698D01*
X17088506Y-14091698D02*
X17088506Y-14167888D01*
X17088506Y-14167888D02*
X17098030Y-14186936D01*
X17098030Y-14186936D02*
X17107553Y-14196460D01*
X17107553Y-14196460D02*
X17126601Y-14205984D01*
X17126601Y-14205984D02*
X17164696Y-14205984D01*
X17164696Y-14205984D02*
X17183744Y-14196460D01*
X17183744Y-14196460D02*
X17193268Y-14186936D01*
X17193268Y-14186936D02*
X17202791Y-14167888D01*
X17202791Y-14167888D02*
X17202791Y-14120269D01*
X17202791Y-14120269D02*
X17193268Y-14101222D01*
X17193268Y-14101222D02*
X17183744Y-14091698D01*
X17183744Y-14091698D02*
X17164696Y-14082174D01*
X17164696Y-14082174D02*
X17126601Y-14082174D01*
X17126601Y-14082174D02*
X17107553Y-14091698D01*
X17107553Y-14091698D02*
X17098030Y-14101222D01*
X17098030Y-14101222D02*
X17088506Y-14120269D01*
X17440887Y-14205984D02*
X17440887Y-14005984D01*
X17526601Y-14205984D02*
X17526601Y-14101222D01*
X17526601Y-14101222D02*
X17517077Y-14082174D01*
X17517077Y-14082174D02*
X17498030Y-14072650D01*
X17498030Y-14072650D02*
X17469458Y-14072650D01*
X17469458Y-14072650D02*
X17450411Y-14082174D01*
X17450411Y-14082174D02*
X17440887Y-14091698D01*
X17650411Y-14205984D02*
X17631363Y-14196460D01*
X17631363Y-14196460D02*
X17621839Y-14186936D01*
X17621839Y-14186936D02*
X17612315Y-14167888D01*
X17612315Y-14167888D02*
X17612315Y-14110746D01*
X17612315Y-14110746D02*
X17621839Y-14091698D01*
X17621839Y-14091698D02*
X17631363Y-14082174D01*
X17631363Y-14082174D02*
X17650411Y-14072650D01*
X17650411Y-14072650D02*
X17678982Y-14072650D01*
X17678982Y-14072650D02*
X17698030Y-14082174D01*
X17698030Y-14082174D02*
X17707553Y-14091698D01*
X17707553Y-14091698D02*
X17717077Y-14110746D01*
X17717077Y-14110746D02*
X17717077Y-14167888D01*
X17717077Y-14167888D02*
X17707553Y-14186936D01*
X17707553Y-14186936D02*
X17698030Y-14196460D01*
X17698030Y-14196460D02*
X17678982Y-14205984D01*
X17678982Y-14205984D02*
X17650411Y-14205984D01*
X17831363Y-14205984D02*
X17812315Y-14196460D01*
X17812315Y-14196460D02*
X17802792Y-14177412D01*
X17802792Y-14177412D02*
X17802792Y-14005984D01*
X17983744Y-14196460D02*
X17964696Y-14205984D01*
X17964696Y-14205984D02*
X17926601Y-14205984D01*
X17926601Y-14205984D02*
X17907553Y-14196460D01*
X17907553Y-14196460D02*
X17898030Y-14177412D01*
X17898030Y-14177412D02*
X17898030Y-14101222D01*
X17898030Y-14101222D02*
X17907553Y-14082174D01*
X17907553Y-14082174D02*
X17926601Y-14072650D01*
X17926601Y-14072650D02*
X17964696Y-14072650D01*
X17964696Y-14072650D02*
X17983744Y-14082174D01*
X17983744Y-14082174D02*
X17993268Y-14101222D01*
X17993268Y-14101222D02*
X17993268Y-14120269D01*
X17993268Y-14120269D02*
X17898030Y-14139317D01*
X18069458Y-14196460D02*
X18088506Y-14205984D01*
X18088506Y-14205984D02*
X18126601Y-14205984D01*
X18126601Y-14205984D02*
X18145649Y-14196460D01*
X18145649Y-14196460D02*
X18155173Y-14177412D01*
X18155173Y-14177412D02*
X18155173Y-14167888D01*
X18155173Y-14167888D02*
X18145649Y-14148841D01*
X18145649Y-14148841D02*
X18126601Y-14139317D01*
X18126601Y-14139317D02*
X18098030Y-14139317D01*
X18098030Y-14139317D02*
X18078982Y-14129793D01*
X18078982Y-14129793D02*
X18069458Y-14110746D01*
X18069458Y-14110746D02*
X18069458Y-14101222D01*
X18069458Y-14101222D02*
X18078982Y-14082174D01*
X18078982Y-14082174D02*
X18098030Y-14072650D01*
X18098030Y-14072650D02*
X18126601Y-14072650D01*
X18126601Y-14072650D02*
X18145649Y-14082174D01*
X18221839Y-14282174D02*
X18231363Y-14272650D01*
X18231363Y-14272650D02*
X18250411Y-14244079D01*
X18250411Y-14244079D02*
X18259934Y-14225031D01*
X18259934Y-14225031D02*
X18269458Y-14196460D01*
X18269458Y-14196460D02*
X18278982Y-14148841D01*
X18278982Y-14148841D02*
X18278982Y-14110746D01*
X18278982Y-14110746D02*
X18269458Y-14063127D01*
X18269458Y-14063127D02*
X18259934Y-14034555D01*
X18259934Y-14034555D02*
X18250411Y-14015508D01*
X18250411Y-14015508D02*
X18231363Y-13986936D01*
X18231363Y-13986936D02*
X18221839Y-13977412D01*
D12*
X13218800Y-14341000D02*
X13218800Y-14416000D01*
X13181300Y-14378500D02*
X13256300Y-14378500D01*
D11*
X13555172Y-14269984D02*
X13574220Y-14269984D01*
X13574220Y-14269984D02*
X13593267Y-14279508D01*
X13593267Y-14279508D02*
X13602791Y-14289031D01*
X13602791Y-14289031D02*
X13612315Y-14308079D01*
X13612315Y-14308079D02*
X13621839Y-14346174D01*
X13621839Y-14346174D02*
X13621839Y-14393793D01*
X13621839Y-14393793D02*
X13612315Y-14431888D01*
X13612315Y-14431888D02*
X13602791Y-14450936D01*
X13602791Y-14450936D02*
X13593267Y-14460460D01*
X13593267Y-14460460D02*
X13574220Y-14469984D01*
X13574220Y-14469984D02*
X13555172Y-14469984D01*
X13555172Y-14469984D02*
X13536124Y-14460460D01*
X13536124Y-14460460D02*
X13526601Y-14450936D01*
X13526601Y-14450936D02*
X13517077Y-14431888D01*
X13517077Y-14431888D02*
X13507553Y-14393793D01*
X13507553Y-14393793D02*
X13507553Y-14346174D01*
X13507553Y-14346174D02*
X13517077Y-14308079D01*
X13517077Y-14308079D02*
X13526601Y-14289031D01*
X13526601Y-14289031D02*
X13536124Y-14279508D01*
X13536124Y-14279508D02*
X13555172Y-14269984D01*
X13707553Y-14450936D02*
X13717077Y-14460460D01*
X13717077Y-14460460D02*
X13707553Y-14469984D01*
X13707553Y-14469984D02*
X13698029Y-14460460D01*
X13698029Y-14460460D02*
X13707553Y-14450936D01*
X13707553Y-14450936D02*
X13707553Y-14469984D01*
X13783743Y-14269984D02*
X13917077Y-14269984D01*
X13917077Y-14269984D02*
X13831362Y-14469984D01*
X14088505Y-14269984D02*
X13993267Y-14269984D01*
X13993267Y-14269984D02*
X13983743Y-14365222D01*
X13983743Y-14365222D02*
X13993267Y-14355698D01*
X13993267Y-14355698D02*
X14012315Y-14346174D01*
X14012315Y-14346174D02*
X14059934Y-14346174D01*
X14059934Y-14346174D02*
X14078982Y-14355698D01*
X14078982Y-14355698D02*
X14088505Y-14365222D01*
X14088505Y-14365222D02*
X14098029Y-14384269D01*
X14098029Y-14384269D02*
X14098029Y-14431888D01*
X14098029Y-14431888D02*
X14088505Y-14450936D01*
X14088505Y-14450936D02*
X14078982Y-14460460D01*
X14078982Y-14460460D02*
X14059934Y-14469984D01*
X14059934Y-14469984D02*
X14012315Y-14469984D01*
X14012315Y-14469984D02*
X13993267Y-14460460D01*
X13993267Y-14460460D02*
X13983743Y-14450936D01*
X14221839Y-14269984D02*
X14240886Y-14269984D01*
X14240886Y-14269984D02*
X14259934Y-14279508D01*
X14259934Y-14279508D02*
X14269458Y-14289031D01*
X14269458Y-14289031D02*
X14278982Y-14308079D01*
X14278982Y-14308079D02*
X14288505Y-14346174D01*
X14288505Y-14346174D02*
X14288505Y-14393793D01*
X14288505Y-14393793D02*
X14278982Y-14431888D01*
X14278982Y-14431888D02*
X14269458Y-14450936D01*
X14269458Y-14450936D02*
X14259934Y-14460460D01*
X14259934Y-14460460D02*
X14240886Y-14469984D01*
X14240886Y-14469984D02*
X14221839Y-14469984D01*
X14221839Y-14469984D02*
X14202791Y-14460460D01*
X14202791Y-14460460D02*
X14193267Y-14450936D01*
X14193267Y-14450936D02*
X14183743Y-14431888D01*
X14183743Y-14431888D02*
X14174220Y-14393793D01*
X14174220Y-14393793D02*
X14174220Y-14346174D01*
X14174220Y-14346174D02*
X14183743Y-14308079D01*
X14183743Y-14308079D02*
X14193267Y-14289031D01*
X14193267Y-14289031D02*
X14202791Y-14279508D01*
X14202791Y-14279508D02*
X14221839Y-14269984D01*
X14374220Y-14469984D02*
X14374220Y-14336650D01*
X14374220Y-14355698D02*
X14383743Y-14346174D01*
X14383743Y-14346174D02*
X14402791Y-14336650D01*
X14402791Y-14336650D02*
X14431363Y-14336650D01*
X14431363Y-14336650D02*
X14450410Y-14346174D01*
X14450410Y-14346174D02*
X14459934Y-14365222D01*
X14459934Y-14365222D02*
X14459934Y-14469984D01*
X14459934Y-14365222D02*
X14469458Y-14346174D01*
X14469458Y-14346174D02*
X14488505Y-14336650D01*
X14488505Y-14336650D02*
X14517077Y-14336650D01*
X14517077Y-14336650D02*
X14536124Y-14346174D01*
X14536124Y-14346174D02*
X14545648Y-14365222D01*
X14545648Y-14365222D02*
X14545648Y-14469984D01*
X14640886Y-14469984D02*
X14640886Y-14336650D01*
X14640886Y-14355698D02*
X14650410Y-14346174D01*
X14650410Y-14346174D02*
X14669458Y-14336650D01*
X14669458Y-14336650D02*
X14698029Y-14336650D01*
X14698029Y-14336650D02*
X14717077Y-14346174D01*
X14717077Y-14346174D02*
X14726601Y-14365222D01*
X14726601Y-14365222D02*
X14726601Y-14469984D01*
X14726601Y-14365222D02*
X14736124Y-14346174D01*
X14736124Y-14346174D02*
X14755172Y-14336650D01*
X14755172Y-14336650D02*
X14783743Y-14336650D01*
X14783743Y-14336650D02*
X14802791Y-14346174D01*
X14802791Y-14346174D02*
X14812315Y-14365222D01*
X14812315Y-14365222D02*
X14812315Y-14469984D01*
X15202791Y-14260460D02*
X15031363Y-14517603D01*
X15459934Y-14269984D02*
X15478982Y-14269984D01*
X15478982Y-14269984D02*
X15498029Y-14279508D01*
X15498029Y-14279508D02*
X15507553Y-14289031D01*
X15507553Y-14289031D02*
X15517077Y-14308079D01*
X15517077Y-14308079D02*
X15526601Y-14346174D01*
X15526601Y-14346174D02*
X15526601Y-14393793D01*
X15526601Y-14393793D02*
X15517077Y-14431888D01*
X15517077Y-14431888D02*
X15507553Y-14450936D01*
X15507553Y-14450936D02*
X15498029Y-14460460D01*
X15498029Y-14460460D02*
X15478982Y-14469984D01*
X15478982Y-14469984D02*
X15459934Y-14469984D01*
X15459934Y-14469984D02*
X15440886Y-14460460D01*
X15440886Y-14460460D02*
X15431363Y-14450936D01*
X15431363Y-14450936D02*
X15421839Y-14431888D01*
X15421839Y-14431888D02*
X15412315Y-14393793D01*
X15412315Y-14393793D02*
X15412315Y-14346174D01*
X15412315Y-14346174D02*
X15421839Y-14308079D01*
X15421839Y-14308079D02*
X15431363Y-14289031D01*
X15431363Y-14289031D02*
X15440886Y-14279508D01*
X15440886Y-14279508D02*
X15459934Y-14269984D01*
X15612315Y-14450936D02*
X15621839Y-14460460D01*
X15621839Y-14460460D02*
X15612315Y-14469984D01*
X15612315Y-14469984D02*
X15602791Y-14460460D01*
X15602791Y-14460460D02*
X15612315Y-14450936D01*
X15612315Y-14450936D02*
X15612315Y-14469984D01*
X15745648Y-14269984D02*
X15764696Y-14269984D01*
X15764696Y-14269984D02*
X15783744Y-14279508D01*
X15783744Y-14279508D02*
X15793267Y-14289031D01*
X15793267Y-14289031D02*
X15802791Y-14308079D01*
X15802791Y-14308079D02*
X15812315Y-14346174D01*
X15812315Y-14346174D02*
X15812315Y-14393793D01*
X15812315Y-14393793D02*
X15802791Y-14431888D01*
X15802791Y-14431888D02*
X15793267Y-14450936D01*
X15793267Y-14450936D02*
X15783744Y-14460460D01*
X15783744Y-14460460D02*
X15764696Y-14469984D01*
X15764696Y-14469984D02*
X15745648Y-14469984D01*
X15745648Y-14469984D02*
X15726601Y-14460460D01*
X15726601Y-14460460D02*
X15717077Y-14450936D01*
X15717077Y-14450936D02*
X15707553Y-14431888D01*
X15707553Y-14431888D02*
X15698029Y-14393793D01*
X15698029Y-14393793D02*
X15698029Y-14346174D01*
X15698029Y-14346174D02*
X15707553Y-14308079D01*
X15707553Y-14308079D02*
X15717077Y-14289031D01*
X15717077Y-14289031D02*
X15726601Y-14279508D01*
X15726601Y-14279508D02*
X15745648Y-14269984D01*
X15888506Y-14289031D02*
X15898029Y-14279508D01*
X15898029Y-14279508D02*
X15917077Y-14269984D01*
X15917077Y-14269984D02*
X15964696Y-14269984D01*
X15964696Y-14269984D02*
X15983744Y-14279508D01*
X15983744Y-14279508D02*
X15993267Y-14289031D01*
X15993267Y-14289031D02*
X16002791Y-14308079D01*
X16002791Y-14308079D02*
X16002791Y-14327127D01*
X16002791Y-14327127D02*
X15993267Y-14355698D01*
X15993267Y-14355698D02*
X15878982Y-14469984D01*
X15878982Y-14469984D02*
X16002791Y-14469984D01*
X16098029Y-14469984D02*
X16136125Y-14469984D01*
X16136125Y-14469984D02*
X16155172Y-14460460D01*
X16155172Y-14460460D02*
X16164696Y-14450936D01*
X16164696Y-14450936D02*
X16183744Y-14422365D01*
X16183744Y-14422365D02*
X16193267Y-14384269D01*
X16193267Y-14384269D02*
X16193267Y-14308079D01*
X16193267Y-14308079D02*
X16183744Y-14289031D01*
X16183744Y-14289031D02*
X16174220Y-14279508D01*
X16174220Y-14279508D02*
X16155172Y-14269984D01*
X16155172Y-14269984D02*
X16117077Y-14269984D01*
X16117077Y-14269984D02*
X16098029Y-14279508D01*
X16098029Y-14279508D02*
X16088506Y-14289031D01*
X16088506Y-14289031D02*
X16078982Y-14308079D01*
X16078982Y-14308079D02*
X16078982Y-14355698D01*
X16078982Y-14355698D02*
X16088506Y-14374746D01*
X16088506Y-14374746D02*
X16098029Y-14384269D01*
X16098029Y-14384269D02*
X16117077Y-14393793D01*
X16117077Y-14393793D02*
X16155172Y-14393793D01*
X16155172Y-14393793D02*
X16174220Y-14384269D01*
X16174220Y-14384269D02*
X16183744Y-14374746D01*
X16183744Y-14374746D02*
X16193267Y-14355698D01*
X16374220Y-14269984D02*
X16278982Y-14269984D01*
X16278982Y-14269984D02*
X16269458Y-14365222D01*
X16269458Y-14365222D02*
X16278982Y-14355698D01*
X16278982Y-14355698D02*
X16298029Y-14346174D01*
X16298029Y-14346174D02*
X16345648Y-14346174D01*
X16345648Y-14346174D02*
X16364696Y-14355698D01*
X16364696Y-14355698D02*
X16374220Y-14365222D01*
X16374220Y-14365222D02*
X16383744Y-14384269D01*
X16383744Y-14384269D02*
X16383744Y-14431888D01*
X16383744Y-14431888D02*
X16374220Y-14450936D01*
X16374220Y-14450936D02*
X16364696Y-14460460D01*
X16364696Y-14460460D02*
X16345648Y-14469984D01*
X16345648Y-14469984D02*
X16298029Y-14469984D01*
X16298029Y-14469984D02*
X16278982Y-14460460D01*
X16278982Y-14460460D02*
X16269458Y-14450936D01*
X16459934Y-14269984D02*
X16459934Y-14308079D01*
X16536125Y-14269984D02*
X16536125Y-14308079D01*
X16831363Y-14546174D02*
X16821839Y-14536650D01*
X16821839Y-14536650D02*
X16802791Y-14508079D01*
X16802791Y-14508079D02*
X16793268Y-14489031D01*
X16793268Y-14489031D02*
X16783744Y-14460460D01*
X16783744Y-14460460D02*
X16774220Y-14412841D01*
X16774220Y-14412841D02*
X16774220Y-14374746D01*
X16774220Y-14374746D02*
X16783744Y-14327127D01*
X16783744Y-14327127D02*
X16793268Y-14298555D01*
X16793268Y-14298555D02*
X16802791Y-14279508D01*
X16802791Y-14279508D02*
X16821839Y-14250936D01*
X16821839Y-14250936D02*
X16831363Y-14241412D01*
X16993268Y-14269984D02*
X16955172Y-14269984D01*
X16955172Y-14269984D02*
X16936125Y-14279508D01*
X16936125Y-14279508D02*
X16926601Y-14289031D01*
X16926601Y-14289031D02*
X16907553Y-14317603D01*
X16907553Y-14317603D02*
X16898030Y-14355698D01*
X16898030Y-14355698D02*
X16898030Y-14431888D01*
X16898030Y-14431888D02*
X16907553Y-14450936D01*
X16907553Y-14450936D02*
X16917077Y-14460460D01*
X16917077Y-14460460D02*
X16936125Y-14469984D01*
X16936125Y-14469984D02*
X16974220Y-14469984D01*
X16974220Y-14469984D02*
X16993268Y-14460460D01*
X16993268Y-14460460D02*
X17002791Y-14450936D01*
X17002791Y-14450936D02*
X17012315Y-14431888D01*
X17012315Y-14431888D02*
X17012315Y-14384269D01*
X17012315Y-14384269D02*
X17002791Y-14365222D01*
X17002791Y-14365222D02*
X16993268Y-14355698D01*
X16993268Y-14355698D02*
X16974220Y-14346174D01*
X16974220Y-14346174D02*
X16936125Y-14346174D01*
X16936125Y-14346174D02*
X16917077Y-14355698D01*
X16917077Y-14355698D02*
X16907553Y-14365222D01*
X16907553Y-14365222D02*
X16898030Y-14384269D01*
X17250411Y-14469984D02*
X17250411Y-14269984D01*
X17336125Y-14469984D02*
X17336125Y-14365222D01*
X17336125Y-14365222D02*
X17326601Y-14346174D01*
X17326601Y-14346174D02*
X17307553Y-14336650D01*
X17307553Y-14336650D02*
X17278982Y-14336650D01*
X17278982Y-14336650D02*
X17259934Y-14346174D01*
X17259934Y-14346174D02*
X17250411Y-14355698D01*
X17459934Y-14469984D02*
X17440887Y-14460460D01*
X17440887Y-14460460D02*
X17431363Y-14450936D01*
X17431363Y-14450936D02*
X17421839Y-14431888D01*
X17421839Y-14431888D02*
X17421839Y-14374746D01*
X17421839Y-14374746D02*
X17431363Y-14355698D01*
X17431363Y-14355698D02*
X17440887Y-14346174D01*
X17440887Y-14346174D02*
X17459934Y-14336650D01*
X17459934Y-14336650D02*
X17488506Y-14336650D01*
X17488506Y-14336650D02*
X17507553Y-14346174D01*
X17507553Y-14346174D02*
X17517077Y-14355698D01*
X17517077Y-14355698D02*
X17526601Y-14374746D01*
X17526601Y-14374746D02*
X17526601Y-14431888D01*
X17526601Y-14431888D02*
X17517077Y-14450936D01*
X17517077Y-14450936D02*
X17507553Y-14460460D01*
X17507553Y-14460460D02*
X17488506Y-14469984D01*
X17488506Y-14469984D02*
X17459934Y-14469984D01*
X17640887Y-14469984D02*
X17621839Y-14460460D01*
X17621839Y-14460460D02*
X17612315Y-14441412D01*
X17612315Y-14441412D02*
X17612315Y-14269984D01*
X17793268Y-14460460D02*
X17774220Y-14469984D01*
X17774220Y-14469984D02*
X17736125Y-14469984D01*
X17736125Y-14469984D02*
X17717077Y-14460460D01*
X17717077Y-14460460D02*
X17707553Y-14441412D01*
X17707553Y-14441412D02*
X17707553Y-14365222D01*
X17707553Y-14365222D02*
X17717077Y-14346174D01*
X17717077Y-14346174D02*
X17736125Y-14336650D01*
X17736125Y-14336650D02*
X17774220Y-14336650D01*
X17774220Y-14336650D02*
X17793268Y-14346174D01*
X17793268Y-14346174D02*
X17802792Y-14365222D01*
X17802792Y-14365222D02*
X17802792Y-14384269D01*
X17802792Y-14384269D02*
X17707553Y-14403317D01*
X17878982Y-14460460D02*
X17898030Y-14469984D01*
X17898030Y-14469984D02*
X17936125Y-14469984D01*
X17936125Y-14469984D02*
X17955173Y-14460460D01*
X17955173Y-14460460D02*
X17964696Y-14441412D01*
X17964696Y-14441412D02*
X17964696Y-14431888D01*
X17964696Y-14431888D02*
X17955173Y-14412841D01*
X17955173Y-14412841D02*
X17936125Y-14403317D01*
X17936125Y-14403317D02*
X17907553Y-14403317D01*
X17907553Y-14403317D02*
X17888506Y-14393793D01*
X17888506Y-14393793D02*
X17878982Y-14374746D01*
X17878982Y-14374746D02*
X17878982Y-14365222D01*
X17878982Y-14365222D02*
X17888506Y-14346174D01*
X17888506Y-14346174D02*
X17907553Y-14336650D01*
X17907553Y-14336650D02*
X17936125Y-14336650D01*
X17936125Y-14336650D02*
X17955173Y-14346174D01*
X18031363Y-14546174D02*
X18040887Y-14536650D01*
X18040887Y-14536650D02*
X18059934Y-14508079D01*
X18059934Y-14508079D02*
X18069458Y-14489031D01*
X18069458Y-14489031D02*
X18078982Y-14460460D01*
X18078982Y-14460460D02*
X18088506Y-14412841D01*
X18088506Y-14412841D02*
X18088506Y-14374746D01*
X18088506Y-14374746D02*
X18078982Y-14327127D01*
X18078982Y-14327127D02*
X18069458Y-14298555D01*
X18069458Y-14298555D02*
X18059934Y-14279508D01*
X18059934Y-14279508D02*
X18040887Y-14250936D01*
X18040887Y-14250936D02*
X18031363Y-14241412D01*
D12*
X13244584Y-14670784D02*
X13244584Y-14614215D01*
X13188015Y-14614215D01*
X13188015Y-14670784D01*
X13244584Y-14670784D01*
D11*
X13555172Y-14533984D02*
X13574220Y-14533984D01*
X13574220Y-14533984D02*
X13593267Y-14543508D01*
X13593267Y-14543508D02*
X13602791Y-14553031D01*
X13602791Y-14553031D02*
X13612315Y-14572079D01*
X13612315Y-14572079D02*
X13621839Y-14610174D01*
X13621839Y-14610174D02*
X13621839Y-14657793D01*
X13621839Y-14657793D02*
X13612315Y-14695888D01*
X13612315Y-14695888D02*
X13602791Y-14714936D01*
X13602791Y-14714936D02*
X13593267Y-14724460D01*
X13593267Y-14724460D02*
X13574220Y-14733984D01*
X13574220Y-14733984D02*
X13555172Y-14733984D01*
X13555172Y-14733984D02*
X13536124Y-14724460D01*
X13536124Y-14724460D02*
X13526601Y-14714936D01*
X13526601Y-14714936D02*
X13517077Y-14695888D01*
X13517077Y-14695888D02*
X13507553Y-14657793D01*
X13507553Y-14657793D02*
X13507553Y-14610174D01*
X13507553Y-14610174D02*
X13517077Y-14572079D01*
X13517077Y-14572079D02*
X13526601Y-14553031D01*
X13526601Y-14553031D02*
X13536124Y-14543508D01*
X13536124Y-14543508D02*
X13555172Y-14533984D01*
X13707553Y-14714936D02*
X13717077Y-14724460D01*
X13717077Y-14724460D02*
X13707553Y-14733984D01*
X13707553Y-14733984D02*
X13698029Y-14724460D01*
X13698029Y-14724460D02*
X13707553Y-14714936D01*
X13707553Y-14714936D02*
X13707553Y-14733984D01*
X13831362Y-14619698D02*
X13812315Y-14610174D01*
X13812315Y-14610174D02*
X13802791Y-14600650D01*
X13802791Y-14600650D02*
X13793267Y-14581603D01*
X13793267Y-14581603D02*
X13793267Y-14572079D01*
X13793267Y-14572079D02*
X13802791Y-14553031D01*
X13802791Y-14553031D02*
X13812315Y-14543508D01*
X13812315Y-14543508D02*
X13831362Y-14533984D01*
X13831362Y-14533984D02*
X13869458Y-14533984D01*
X13869458Y-14533984D02*
X13888505Y-14543508D01*
X13888505Y-14543508D02*
X13898029Y-14553031D01*
X13898029Y-14553031D02*
X13907553Y-14572079D01*
X13907553Y-14572079D02*
X13907553Y-14581603D01*
X13907553Y-14581603D02*
X13898029Y-14600650D01*
X13898029Y-14600650D02*
X13888505Y-14610174D01*
X13888505Y-14610174D02*
X13869458Y-14619698D01*
X13869458Y-14619698D02*
X13831362Y-14619698D01*
X13831362Y-14619698D02*
X13812315Y-14629222D01*
X13812315Y-14629222D02*
X13802791Y-14638746D01*
X13802791Y-14638746D02*
X13793267Y-14657793D01*
X13793267Y-14657793D02*
X13793267Y-14695888D01*
X13793267Y-14695888D02*
X13802791Y-14714936D01*
X13802791Y-14714936D02*
X13812315Y-14724460D01*
X13812315Y-14724460D02*
X13831362Y-14733984D01*
X13831362Y-14733984D02*
X13869458Y-14733984D01*
X13869458Y-14733984D02*
X13888505Y-14724460D01*
X13888505Y-14724460D02*
X13898029Y-14714936D01*
X13898029Y-14714936D02*
X13907553Y-14695888D01*
X13907553Y-14695888D02*
X13907553Y-14657793D01*
X13907553Y-14657793D02*
X13898029Y-14638746D01*
X13898029Y-14638746D02*
X13888505Y-14629222D01*
X13888505Y-14629222D02*
X13869458Y-14619698D01*
X14031362Y-14533984D02*
X14050410Y-14533984D01*
X14050410Y-14533984D02*
X14069458Y-14543508D01*
X14069458Y-14543508D02*
X14078982Y-14553031D01*
X14078982Y-14553031D02*
X14088505Y-14572079D01*
X14088505Y-14572079D02*
X14098029Y-14610174D01*
X14098029Y-14610174D02*
X14098029Y-14657793D01*
X14098029Y-14657793D02*
X14088505Y-14695888D01*
X14088505Y-14695888D02*
X14078982Y-14714936D01*
X14078982Y-14714936D02*
X14069458Y-14724460D01*
X14069458Y-14724460D02*
X14050410Y-14733984D01*
X14050410Y-14733984D02*
X14031362Y-14733984D01*
X14031362Y-14733984D02*
X14012315Y-14724460D01*
X14012315Y-14724460D02*
X14002791Y-14714936D01*
X14002791Y-14714936D02*
X13993267Y-14695888D01*
X13993267Y-14695888D02*
X13983743Y-14657793D01*
X13983743Y-14657793D02*
X13983743Y-14610174D01*
X13983743Y-14610174D02*
X13993267Y-14572079D01*
X13993267Y-14572079D02*
X14002791Y-14553031D01*
X14002791Y-14553031D02*
X14012315Y-14543508D01*
X14012315Y-14543508D02*
X14031362Y-14533984D01*
X14221839Y-14533984D02*
X14240886Y-14533984D01*
X14240886Y-14533984D02*
X14259934Y-14543508D01*
X14259934Y-14543508D02*
X14269458Y-14553031D01*
X14269458Y-14553031D02*
X14278982Y-14572079D01*
X14278982Y-14572079D02*
X14288505Y-14610174D01*
X14288505Y-14610174D02*
X14288505Y-14657793D01*
X14288505Y-14657793D02*
X14278982Y-14695888D01*
X14278982Y-14695888D02*
X14269458Y-14714936D01*
X14269458Y-14714936D02*
X14259934Y-14724460D01*
X14259934Y-14724460D02*
X14240886Y-14733984D01*
X14240886Y-14733984D02*
X14221839Y-14733984D01*
X14221839Y-14733984D02*
X14202791Y-14724460D01*
X14202791Y-14724460D02*
X14193267Y-14714936D01*
X14193267Y-14714936D02*
X14183743Y-14695888D01*
X14183743Y-14695888D02*
X14174220Y-14657793D01*
X14174220Y-14657793D02*
X14174220Y-14610174D01*
X14174220Y-14610174D02*
X14183743Y-14572079D01*
X14183743Y-14572079D02*
X14193267Y-14553031D01*
X14193267Y-14553031D02*
X14202791Y-14543508D01*
X14202791Y-14543508D02*
X14221839Y-14533984D01*
X14374220Y-14733984D02*
X14374220Y-14600650D01*
X14374220Y-14619698D02*
X14383743Y-14610174D01*
X14383743Y-14610174D02*
X14402791Y-14600650D01*
X14402791Y-14600650D02*
X14431363Y-14600650D01*
X14431363Y-14600650D02*
X14450410Y-14610174D01*
X14450410Y-14610174D02*
X14459934Y-14629222D01*
X14459934Y-14629222D02*
X14459934Y-14733984D01*
X14459934Y-14629222D02*
X14469458Y-14610174D01*
X14469458Y-14610174D02*
X14488505Y-14600650D01*
X14488505Y-14600650D02*
X14517077Y-14600650D01*
X14517077Y-14600650D02*
X14536124Y-14610174D01*
X14536124Y-14610174D02*
X14545648Y-14629222D01*
X14545648Y-14629222D02*
X14545648Y-14733984D01*
X14640886Y-14733984D02*
X14640886Y-14600650D01*
X14640886Y-14619698D02*
X14650410Y-14610174D01*
X14650410Y-14610174D02*
X14669458Y-14600650D01*
X14669458Y-14600650D02*
X14698029Y-14600650D01*
X14698029Y-14600650D02*
X14717077Y-14610174D01*
X14717077Y-14610174D02*
X14726601Y-14629222D01*
X14726601Y-14629222D02*
X14726601Y-14733984D01*
X14726601Y-14629222D02*
X14736124Y-14610174D01*
X14736124Y-14610174D02*
X14755172Y-14600650D01*
X14755172Y-14600650D02*
X14783743Y-14600650D01*
X14783743Y-14600650D02*
X14802791Y-14610174D01*
X14802791Y-14610174D02*
X14812315Y-14629222D01*
X14812315Y-14629222D02*
X14812315Y-14733984D01*
X15202791Y-14524460D02*
X15031363Y-14781603D01*
X15459934Y-14533984D02*
X15478982Y-14533984D01*
X15478982Y-14533984D02*
X15498029Y-14543508D01*
X15498029Y-14543508D02*
X15507553Y-14553031D01*
X15507553Y-14553031D02*
X15517077Y-14572079D01*
X15517077Y-14572079D02*
X15526601Y-14610174D01*
X15526601Y-14610174D02*
X15526601Y-14657793D01*
X15526601Y-14657793D02*
X15517077Y-14695888D01*
X15517077Y-14695888D02*
X15507553Y-14714936D01*
X15507553Y-14714936D02*
X15498029Y-14724460D01*
X15498029Y-14724460D02*
X15478982Y-14733984D01*
X15478982Y-14733984D02*
X15459934Y-14733984D01*
X15459934Y-14733984D02*
X15440886Y-14724460D01*
X15440886Y-14724460D02*
X15431363Y-14714936D01*
X15431363Y-14714936D02*
X15421839Y-14695888D01*
X15421839Y-14695888D02*
X15412315Y-14657793D01*
X15412315Y-14657793D02*
X15412315Y-14610174D01*
X15412315Y-14610174D02*
X15421839Y-14572079D01*
X15421839Y-14572079D02*
X15431363Y-14553031D01*
X15431363Y-14553031D02*
X15440886Y-14543508D01*
X15440886Y-14543508D02*
X15459934Y-14533984D01*
X15612315Y-14714936D02*
X15621839Y-14724460D01*
X15621839Y-14724460D02*
X15612315Y-14733984D01*
X15612315Y-14733984D02*
X15602791Y-14724460D01*
X15602791Y-14724460D02*
X15612315Y-14714936D01*
X15612315Y-14714936D02*
X15612315Y-14733984D01*
X15745648Y-14533984D02*
X15764696Y-14533984D01*
X15764696Y-14533984D02*
X15783744Y-14543508D01*
X15783744Y-14543508D02*
X15793267Y-14553031D01*
X15793267Y-14553031D02*
X15802791Y-14572079D01*
X15802791Y-14572079D02*
X15812315Y-14610174D01*
X15812315Y-14610174D02*
X15812315Y-14657793D01*
X15812315Y-14657793D02*
X15802791Y-14695888D01*
X15802791Y-14695888D02*
X15793267Y-14714936D01*
X15793267Y-14714936D02*
X15783744Y-14724460D01*
X15783744Y-14724460D02*
X15764696Y-14733984D01*
X15764696Y-14733984D02*
X15745648Y-14733984D01*
X15745648Y-14733984D02*
X15726601Y-14724460D01*
X15726601Y-14724460D02*
X15717077Y-14714936D01*
X15717077Y-14714936D02*
X15707553Y-14695888D01*
X15707553Y-14695888D02*
X15698029Y-14657793D01*
X15698029Y-14657793D02*
X15698029Y-14610174D01*
X15698029Y-14610174D02*
X15707553Y-14572079D01*
X15707553Y-14572079D02*
X15717077Y-14553031D01*
X15717077Y-14553031D02*
X15726601Y-14543508D01*
X15726601Y-14543508D02*
X15745648Y-14533984D01*
X15878982Y-14533984D02*
X16002791Y-14533984D01*
X16002791Y-14533984D02*
X15936125Y-14610174D01*
X15936125Y-14610174D02*
X15964696Y-14610174D01*
X15964696Y-14610174D02*
X15983744Y-14619698D01*
X15983744Y-14619698D02*
X15993267Y-14629222D01*
X15993267Y-14629222D02*
X16002791Y-14648269D01*
X16002791Y-14648269D02*
X16002791Y-14695888D01*
X16002791Y-14695888D02*
X15993267Y-14714936D01*
X15993267Y-14714936D02*
X15983744Y-14724460D01*
X15983744Y-14724460D02*
X15964696Y-14733984D01*
X15964696Y-14733984D02*
X15907553Y-14733984D01*
X15907553Y-14733984D02*
X15888506Y-14724460D01*
X15888506Y-14724460D02*
X15878982Y-14714936D01*
X16193267Y-14733984D02*
X16078982Y-14733984D01*
X16136125Y-14733984D02*
X16136125Y-14533984D01*
X16136125Y-14533984D02*
X16117077Y-14562555D01*
X16117077Y-14562555D02*
X16098029Y-14581603D01*
X16098029Y-14581603D02*
X16078982Y-14591127D01*
X16374220Y-14533984D02*
X16278982Y-14533984D01*
X16278982Y-14533984D02*
X16269458Y-14629222D01*
X16269458Y-14629222D02*
X16278982Y-14619698D01*
X16278982Y-14619698D02*
X16298029Y-14610174D01*
X16298029Y-14610174D02*
X16345648Y-14610174D01*
X16345648Y-14610174D02*
X16364696Y-14619698D01*
X16364696Y-14619698D02*
X16374220Y-14629222D01*
X16374220Y-14629222D02*
X16383744Y-14648269D01*
X16383744Y-14648269D02*
X16383744Y-14695888D01*
X16383744Y-14695888D02*
X16374220Y-14714936D01*
X16374220Y-14714936D02*
X16364696Y-14724460D01*
X16364696Y-14724460D02*
X16345648Y-14733984D01*
X16345648Y-14733984D02*
X16298029Y-14733984D01*
X16298029Y-14733984D02*
X16278982Y-14724460D01*
X16278982Y-14724460D02*
X16269458Y-14714936D01*
X16459934Y-14533984D02*
X16459934Y-14572079D01*
X16536125Y-14533984D02*
X16536125Y-14572079D01*
X16831363Y-14810174D02*
X16821839Y-14800650D01*
X16821839Y-14800650D02*
X16802791Y-14772079D01*
X16802791Y-14772079D02*
X16793268Y-14753031D01*
X16793268Y-14753031D02*
X16783744Y-14724460D01*
X16783744Y-14724460D02*
X16774220Y-14676841D01*
X16774220Y-14676841D02*
X16774220Y-14638746D01*
X16774220Y-14638746D02*
X16783744Y-14591127D01*
X16783744Y-14591127D02*
X16793268Y-14562555D01*
X16793268Y-14562555D02*
X16802791Y-14543508D01*
X16802791Y-14543508D02*
X16821839Y-14514936D01*
X16821839Y-14514936D02*
X16831363Y-14505412D01*
X17012315Y-14733984D02*
X16898030Y-14733984D01*
X16955172Y-14733984D02*
X16955172Y-14533984D01*
X16955172Y-14533984D02*
X16936125Y-14562555D01*
X16936125Y-14562555D02*
X16917077Y-14581603D01*
X16917077Y-14581603D02*
X16898030Y-14591127D01*
X17088506Y-14553031D02*
X17098030Y-14543508D01*
X17098030Y-14543508D02*
X17117077Y-14533984D01*
X17117077Y-14533984D02*
X17164696Y-14533984D01*
X17164696Y-14533984D02*
X17183744Y-14543508D01*
X17183744Y-14543508D02*
X17193268Y-14553031D01*
X17193268Y-14553031D02*
X17202791Y-14572079D01*
X17202791Y-14572079D02*
X17202791Y-14591127D01*
X17202791Y-14591127D02*
X17193268Y-14619698D01*
X17193268Y-14619698D02*
X17078982Y-14733984D01*
X17078982Y-14733984D02*
X17202791Y-14733984D01*
X17440887Y-14733984D02*
X17440887Y-14533984D01*
X17526601Y-14733984D02*
X17526601Y-14629222D01*
X17526601Y-14629222D02*
X17517077Y-14610174D01*
X17517077Y-14610174D02*
X17498030Y-14600650D01*
X17498030Y-14600650D02*
X17469458Y-14600650D01*
X17469458Y-14600650D02*
X17450411Y-14610174D01*
X17450411Y-14610174D02*
X17440887Y-14619698D01*
X17650411Y-14733984D02*
X17631363Y-14724460D01*
X17631363Y-14724460D02*
X17621839Y-14714936D01*
X17621839Y-14714936D02*
X17612315Y-14695888D01*
X17612315Y-14695888D02*
X17612315Y-14638746D01*
X17612315Y-14638746D02*
X17621839Y-14619698D01*
X17621839Y-14619698D02*
X17631363Y-14610174D01*
X17631363Y-14610174D02*
X17650411Y-14600650D01*
X17650411Y-14600650D02*
X17678982Y-14600650D01*
X17678982Y-14600650D02*
X17698030Y-14610174D01*
X17698030Y-14610174D02*
X17707553Y-14619698D01*
X17707553Y-14619698D02*
X17717077Y-14638746D01*
X17717077Y-14638746D02*
X17717077Y-14695888D01*
X17717077Y-14695888D02*
X17707553Y-14714936D01*
X17707553Y-14714936D02*
X17698030Y-14724460D01*
X17698030Y-14724460D02*
X17678982Y-14733984D01*
X17678982Y-14733984D02*
X17650411Y-14733984D01*
X17831363Y-14733984D02*
X17812315Y-14724460D01*
X17812315Y-14724460D02*
X17802792Y-14705412D01*
X17802792Y-14705412D02*
X17802792Y-14533984D01*
X17983744Y-14724460D02*
X17964696Y-14733984D01*
X17964696Y-14733984D02*
X17926601Y-14733984D01*
X17926601Y-14733984D02*
X17907553Y-14724460D01*
X17907553Y-14724460D02*
X17898030Y-14705412D01*
X17898030Y-14705412D02*
X17898030Y-14629222D01*
X17898030Y-14629222D02*
X17907553Y-14610174D01*
X17907553Y-14610174D02*
X17926601Y-14600650D01*
X17926601Y-14600650D02*
X17964696Y-14600650D01*
X17964696Y-14600650D02*
X17983744Y-14610174D01*
X17983744Y-14610174D02*
X17993268Y-14629222D01*
X17993268Y-14629222D02*
X17993268Y-14648269D01*
X17993268Y-14648269D02*
X17898030Y-14667317D01*
X18069458Y-14724460D02*
X18088506Y-14733984D01*
X18088506Y-14733984D02*
X18126601Y-14733984D01*
X18126601Y-14733984D02*
X18145649Y-14724460D01*
X18145649Y-14724460D02*
X18155173Y-14705412D01*
X18155173Y-14705412D02*
X18155173Y-14695888D01*
X18155173Y-14695888D02*
X18145649Y-14676841D01*
X18145649Y-14676841D02*
X18126601Y-14667317D01*
X18126601Y-14667317D02*
X18098030Y-14667317D01*
X18098030Y-14667317D02*
X18078982Y-14657793D01*
X18078982Y-14657793D02*
X18069458Y-14638746D01*
X18069458Y-14638746D02*
X18069458Y-14629222D01*
X18069458Y-14629222D02*
X18078982Y-14610174D01*
X18078982Y-14610174D02*
X18098030Y-14600650D01*
X18098030Y-14600650D02*
X18126601Y-14600650D01*
X18126601Y-14600650D02*
X18145649Y-14610174D01*
X18221839Y-14810174D02*
X18231363Y-14800650D01*
X18231363Y-14800650D02*
X18250411Y-14772079D01*
X18250411Y-14772079D02*
X18259934Y-14753031D01*
X18259934Y-14753031D02*
X18269458Y-14724460D01*
X18269458Y-14724460D02*
X18278982Y-14676841D01*
X18278982Y-14676841D02*
X18278982Y-14638746D01*
X18278982Y-14638746D02*
X18269458Y-14591127D01*
X18269458Y-14591127D02*
X18259934Y-14562555D01*
X18259934Y-14562555D02*
X18250411Y-14543508D01*
X18250411Y-14543508D02*
X18231363Y-14514936D01*
X18231363Y-14514936D02*
X18221839Y-14505412D01*
D12*
X13206300Y-14956500D02*
X13256300Y-14906500D01*
X13206300Y-14856500D01*
X13156300Y-14906500D01*
X13206300Y-14956500D01*
D11*
X13621839Y-14997984D02*
X13507553Y-14997984D01*
X13564696Y-14997984D02*
X13564696Y-14797984D01*
X13564696Y-14797984D02*
X13545648Y-14826555D01*
X13545648Y-14826555D02*
X13526601Y-14845603D01*
X13526601Y-14845603D02*
X13507553Y-14855127D01*
X13707553Y-14978936D02*
X13717077Y-14988460D01*
X13717077Y-14988460D02*
X13707553Y-14997984D01*
X13707553Y-14997984D02*
X13698029Y-14988460D01*
X13698029Y-14988460D02*
X13707553Y-14978936D01*
X13707553Y-14978936D02*
X13707553Y-14997984D01*
X13840886Y-14797984D02*
X13859934Y-14797984D01*
X13859934Y-14797984D02*
X13878982Y-14807508D01*
X13878982Y-14807508D02*
X13888505Y-14817031D01*
X13888505Y-14817031D02*
X13898029Y-14836079D01*
X13898029Y-14836079D02*
X13907553Y-14874174D01*
X13907553Y-14874174D02*
X13907553Y-14921793D01*
X13907553Y-14921793D02*
X13898029Y-14959888D01*
X13898029Y-14959888D02*
X13888505Y-14978936D01*
X13888505Y-14978936D02*
X13878982Y-14988460D01*
X13878982Y-14988460D02*
X13859934Y-14997984D01*
X13859934Y-14997984D02*
X13840886Y-14997984D01*
X13840886Y-14997984D02*
X13821839Y-14988460D01*
X13821839Y-14988460D02*
X13812315Y-14978936D01*
X13812315Y-14978936D02*
X13802791Y-14959888D01*
X13802791Y-14959888D02*
X13793267Y-14921793D01*
X13793267Y-14921793D02*
X13793267Y-14874174D01*
X13793267Y-14874174D02*
X13802791Y-14836079D01*
X13802791Y-14836079D02*
X13812315Y-14817031D01*
X13812315Y-14817031D02*
X13821839Y-14807508D01*
X13821839Y-14807508D02*
X13840886Y-14797984D01*
X14031362Y-14797984D02*
X14050410Y-14797984D01*
X14050410Y-14797984D02*
X14069458Y-14807508D01*
X14069458Y-14807508D02*
X14078982Y-14817031D01*
X14078982Y-14817031D02*
X14088505Y-14836079D01*
X14088505Y-14836079D02*
X14098029Y-14874174D01*
X14098029Y-14874174D02*
X14098029Y-14921793D01*
X14098029Y-14921793D02*
X14088505Y-14959888D01*
X14088505Y-14959888D02*
X14078982Y-14978936D01*
X14078982Y-14978936D02*
X14069458Y-14988460D01*
X14069458Y-14988460D02*
X14050410Y-14997984D01*
X14050410Y-14997984D02*
X14031362Y-14997984D01*
X14031362Y-14997984D02*
X14012315Y-14988460D01*
X14012315Y-14988460D02*
X14002791Y-14978936D01*
X14002791Y-14978936D02*
X13993267Y-14959888D01*
X13993267Y-14959888D02*
X13983743Y-14921793D01*
X13983743Y-14921793D02*
X13983743Y-14874174D01*
X13983743Y-14874174D02*
X13993267Y-14836079D01*
X13993267Y-14836079D02*
X14002791Y-14817031D01*
X14002791Y-14817031D02*
X14012315Y-14807508D01*
X14012315Y-14807508D02*
X14031362Y-14797984D01*
X14221839Y-14797984D02*
X14240886Y-14797984D01*
X14240886Y-14797984D02*
X14259934Y-14807508D01*
X14259934Y-14807508D02*
X14269458Y-14817031D01*
X14269458Y-14817031D02*
X14278982Y-14836079D01*
X14278982Y-14836079D02*
X14288505Y-14874174D01*
X14288505Y-14874174D02*
X14288505Y-14921793D01*
X14288505Y-14921793D02*
X14278982Y-14959888D01*
X14278982Y-14959888D02*
X14269458Y-14978936D01*
X14269458Y-14978936D02*
X14259934Y-14988460D01*
X14259934Y-14988460D02*
X14240886Y-14997984D01*
X14240886Y-14997984D02*
X14221839Y-14997984D01*
X14221839Y-14997984D02*
X14202791Y-14988460D01*
X14202791Y-14988460D02*
X14193267Y-14978936D01*
X14193267Y-14978936D02*
X14183743Y-14959888D01*
X14183743Y-14959888D02*
X14174220Y-14921793D01*
X14174220Y-14921793D02*
X14174220Y-14874174D01*
X14174220Y-14874174D02*
X14183743Y-14836079D01*
X14183743Y-14836079D02*
X14193267Y-14817031D01*
X14193267Y-14817031D02*
X14202791Y-14807508D01*
X14202791Y-14807508D02*
X14221839Y-14797984D01*
X14374220Y-14997984D02*
X14374220Y-14864650D01*
X14374220Y-14883698D02*
X14383743Y-14874174D01*
X14383743Y-14874174D02*
X14402791Y-14864650D01*
X14402791Y-14864650D02*
X14431363Y-14864650D01*
X14431363Y-14864650D02*
X14450410Y-14874174D01*
X14450410Y-14874174D02*
X14459934Y-14893222D01*
X14459934Y-14893222D02*
X14459934Y-14997984D01*
X14459934Y-14893222D02*
X14469458Y-14874174D01*
X14469458Y-14874174D02*
X14488505Y-14864650D01*
X14488505Y-14864650D02*
X14517077Y-14864650D01*
X14517077Y-14864650D02*
X14536124Y-14874174D01*
X14536124Y-14874174D02*
X14545648Y-14893222D01*
X14545648Y-14893222D02*
X14545648Y-14997984D01*
X14640886Y-14997984D02*
X14640886Y-14864650D01*
X14640886Y-14883698D02*
X14650410Y-14874174D01*
X14650410Y-14874174D02*
X14669458Y-14864650D01*
X14669458Y-14864650D02*
X14698029Y-14864650D01*
X14698029Y-14864650D02*
X14717077Y-14874174D01*
X14717077Y-14874174D02*
X14726601Y-14893222D01*
X14726601Y-14893222D02*
X14726601Y-14997984D01*
X14726601Y-14893222D02*
X14736124Y-14874174D01*
X14736124Y-14874174D02*
X14755172Y-14864650D01*
X14755172Y-14864650D02*
X14783743Y-14864650D01*
X14783743Y-14864650D02*
X14802791Y-14874174D01*
X14802791Y-14874174D02*
X14812315Y-14893222D01*
X14812315Y-14893222D02*
X14812315Y-14997984D01*
X15202791Y-14788460D02*
X15031363Y-15045603D01*
X15459934Y-14797984D02*
X15478982Y-14797984D01*
X15478982Y-14797984D02*
X15498029Y-14807508D01*
X15498029Y-14807508D02*
X15507553Y-14817031D01*
X15507553Y-14817031D02*
X15517077Y-14836079D01*
X15517077Y-14836079D02*
X15526601Y-14874174D01*
X15526601Y-14874174D02*
X15526601Y-14921793D01*
X15526601Y-14921793D02*
X15517077Y-14959888D01*
X15517077Y-14959888D02*
X15507553Y-14978936D01*
X15507553Y-14978936D02*
X15498029Y-14988460D01*
X15498029Y-14988460D02*
X15478982Y-14997984D01*
X15478982Y-14997984D02*
X15459934Y-14997984D01*
X15459934Y-14997984D02*
X15440886Y-14988460D01*
X15440886Y-14988460D02*
X15431363Y-14978936D01*
X15431363Y-14978936D02*
X15421839Y-14959888D01*
X15421839Y-14959888D02*
X15412315Y-14921793D01*
X15412315Y-14921793D02*
X15412315Y-14874174D01*
X15412315Y-14874174D02*
X15421839Y-14836079D01*
X15421839Y-14836079D02*
X15431363Y-14817031D01*
X15431363Y-14817031D02*
X15440886Y-14807508D01*
X15440886Y-14807508D02*
X15459934Y-14797984D01*
X15612315Y-14978936D02*
X15621839Y-14988460D01*
X15621839Y-14988460D02*
X15612315Y-14997984D01*
X15612315Y-14997984D02*
X15602791Y-14988460D01*
X15602791Y-14988460D02*
X15612315Y-14978936D01*
X15612315Y-14978936D02*
X15612315Y-14997984D01*
X15745648Y-14797984D02*
X15764696Y-14797984D01*
X15764696Y-14797984D02*
X15783744Y-14807508D01*
X15783744Y-14807508D02*
X15793267Y-14817031D01*
X15793267Y-14817031D02*
X15802791Y-14836079D01*
X15802791Y-14836079D02*
X15812315Y-14874174D01*
X15812315Y-14874174D02*
X15812315Y-14921793D01*
X15812315Y-14921793D02*
X15802791Y-14959888D01*
X15802791Y-14959888D02*
X15793267Y-14978936D01*
X15793267Y-14978936D02*
X15783744Y-14988460D01*
X15783744Y-14988460D02*
X15764696Y-14997984D01*
X15764696Y-14997984D02*
X15745648Y-14997984D01*
X15745648Y-14997984D02*
X15726601Y-14988460D01*
X15726601Y-14988460D02*
X15717077Y-14978936D01*
X15717077Y-14978936D02*
X15707553Y-14959888D01*
X15707553Y-14959888D02*
X15698029Y-14921793D01*
X15698029Y-14921793D02*
X15698029Y-14874174D01*
X15698029Y-14874174D02*
X15707553Y-14836079D01*
X15707553Y-14836079D02*
X15717077Y-14817031D01*
X15717077Y-14817031D02*
X15726601Y-14807508D01*
X15726601Y-14807508D02*
X15745648Y-14797984D01*
X15878982Y-14797984D02*
X16002791Y-14797984D01*
X16002791Y-14797984D02*
X15936125Y-14874174D01*
X15936125Y-14874174D02*
X15964696Y-14874174D01*
X15964696Y-14874174D02*
X15983744Y-14883698D01*
X15983744Y-14883698D02*
X15993267Y-14893222D01*
X15993267Y-14893222D02*
X16002791Y-14912269D01*
X16002791Y-14912269D02*
X16002791Y-14959888D01*
X16002791Y-14959888D02*
X15993267Y-14978936D01*
X15993267Y-14978936D02*
X15983744Y-14988460D01*
X15983744Y-14988460D02*
X15964696Y-14997984D01*
X15964696Y-14997984D02*
X15907553Y-14997984D01*
X15907553Y-14997984D02*
X15888506Y-14988460D01*
X15888506Y-14988460D02*
X15878982Y-14978936D01*
X16098029Y-14997984D02*
X16136125Y-14997984D01*
X16136125Y-14997984D02*
X16155172Y-14988460D01*
X16155172Y-14988460D02*
X16164696Y-14978936D01*
X16164696Y-14978936D02*
X16183744Y-14950365D01*
X16183744Y-14950365D02*
X16193267Y-14912269D01*
X16193267Y-14912269D02*
X16193267Y-14836079D01*
X16193267Y-14836079D02*
X16183744Y-14817031D01*
X16183744Y-14817031D02*
X16174220Y-14807508D01*
X16174220Y-14807508D02*
X16155172Y-14797984D01*
X16155172Y-14797984D02*
X16117077Y-14797984D01*
X16117077Y-14797984D02*
X16098029Y-14807508D01*
X16098029Y-14807508D02*
X16088506Y-14817031D01*
X16088506Y-14817031D02*
X16078982Y-14836079D01*
X16078982Y-14836079D02*
X16078982Y-14883698D01*
X16078982Y-14883698D02*
X16088506Y-14902746D01*
X16088506Y-14902746D02*
X16098029Y-14912269D01*
X16098029Y-14912269D02*
X16117077Y-14921793D01*
X16117077Y-14921793D02*
X16155172Y-14921793D01*
X16155172Y-14921793D02*
X16174220Y-14912269D01*
X16174220Y-14912269D02*
X16183744Y-14902746D01*
X16183744Y-14902746D02*
X16193267Y-14883698D01*
X16364696Y-14864650D02*
X16364696Y-14997984D01*
X16317077Y-14788460D02*
X16269458Y-14931317D01*
X16269458Y-14931317D02*
X16393267Y-14931317D01*
X16459934Y-14797984D02*
X16459934Y-14836079D01*
X16536125Y-14797984D02*
X16536125Y-14836079D01*
X16831363Y-15074174D02*
X16821839Y-15064650D01*
X16821839Y-15064650D02*
X16802791Y-15036079D01*
X16802791Y-15036079D02*
X16793268Y-15017031D01*
X16793268Y-15017031D02*
X16783744Y-14988460D01*
X16783744Y-14988460D02*
X16774220Y-14940841D01*
X16774220Y-14940841D02*
X16774220Y-14902746D01*
X16774220Y-14902746D02*
X16783744Y-14855127D01*
X16783744Y-14855127D02*
X16793268Y-14826555D01*
X16793268Y-14826555D02*
X16802791Y-14807508D01*
X16802791Y-14807508D02*
X16821839Y-14778936D01*
X16821839Y-14778936D02*
X16831363Y-14769412D01*
X17012315Y-14997984D02*
X16898030Y-14997984D01*
X16955172Y-14997984D02*
X16955172Y-14797984D01*
X16955172Y-14797984D02*
X16936125Y-14826555D01*
X16936125Y-14826555D02*
X16917077Y-14845603D01*
X16917077Y-14845603D02*
X16898030Y-14855127D01*
X17078982Y-14797984D02*
X17202791Y-14797984D01*
X17202791Y-14797984D02*
X17136125Y-14874174D01*
X17136125Y-14874174D02*
X17164696Y-14874174D01*
X17164696Y-14874174D02*
X17183744Y-14883698D01*
X17183744Y-14883698D02*
X17193268Y-14893222D01*
X17193268Y-14893222D02*
X17202791Y-14912269D01*
X17202791Y-14912269D02*
X17202791Y-14959888D01*
X17202791Y-14959888D02*
X17193268Y-14978936D01*
X17193268Y-14978936D02*
X17183744Y-14988460D01*
X17183744Y-14988460D02*
X17164696Y-14997984D01*
X17164696Y-14997984D02*
X17107553Y-14997984D01*
X17107553Y-14997984D02*
X17088506Y-14988460D01*
X17088506Y-14988460D02*
X17078982Y-14978936D01*
X17440887Y-14997984D02*
X17440887Y-14797984D01*
X17526601Y-14997984D02*
X17526601Y-14893222D01*
X17526601Y-14893222D02*
X17517077Y-14874174D01*
X17517077Y-14874174D02*
X17498030Y-14864650D01*
X17498030Y-14864650D02*
X17469458Y-14864650D01*
X17469458Y-14864650D02*
X17450411Y-14874174D01*
X17450411Y-14874174D02*
X17440887Y-14883698D01*
X17650411Y-14997984D02*
X17631363Y-14988460D01*
X17631363Y-14988460D02*
X17621839Y-14978936D01*
X17621839Y-14978936D02*
X17612315Y-14959888D01*
X17612315Y-14959888D02*
X17612315Y-14902746D01*
X17612315Y-14902746D02*
X17621839Y-14883698D01*
X17621839Y-14883698D02*
X17631363Y-14874174D01*
X17631363Y-14874174D02*
X17650411Y-14864650D01*
X17650411Y-14864650D02*
X17678982Y-14864650D01*
X17678982Y-14864650D02*
X17698030Y-14874174D01*
X17698030Y-14874174D02*
X17707553Y-14883698D01*
X17707553Y-14883698D02*
X17717077Y-14902746D01*
X17717077Y-14902746D02*
X17717077Y-14959888D01*
X17717077Y-14959888D02*
X17707553Y-14978936D01*
X17707553Y-14978936D02*
X17698030Y-14988460D01*
X17698030Y-14988460D02*
X17678982Y-14997984D01*
X17678982Y-14997984D02*
X17650411Y-14997984D01*
X17831363Y-14997984D02*
X17812315Y-14988460D01*
X17812315Y-14988460D02*
X17802792Y-14969412D01*
X17802792Y-14969412D02*
X17802792Y-14797984D01*
X17983744Y-14988460D02*
X17964696Y-14997984D01*
X17964696Y-14997984D02*
X17926601Y-14997984D01*
X17926601Y-14997984D02*
X17907553Y-14988460D01*
X17907553Y-14988460D02*
X17898030Y-14969412D01*
X17898030Y-14969412D02*
X17898030Y-14893222D01*
X17898030Y-14893222D02*
X17907553Y-14874174D01*
X17907553Y-14874174D02*
X17926601Y-14864650D01*
X17926601Y-14864650D02*
X17964696Y-14864650D01*
X17964696Y-14864650D02*
X17983744Y-14874174D01*
X17983744Y-14874174D02*
X17993268Y-14893222D01*
X17993268Y-14893222D02*
X17993268Y-14912269D01*
X17993268Y-14912269D02*
X17898030Y-14931317D01*
X18069458Y-14988460D02*
X18088506Y-14997984D01*
X18088506Y-14997984D02*
X18126601Y-14997984D01*
X18126601Y-14997984D02*
X18145649Y-14988460D01*
X18145649Y-14988460D02*
X18155173Y-14969412D01*
X18155173Y-14969412D02*
X18155173Y-14959888D01*
X18155173Y-14959888D02*
X18145649Y-14940841D01*
X18145649Y-14940841D02*
X18126601Y-14931317D01*
X18126601Y-14931317D02*
X18098030Y-14931317D01*
X18098030Y-14931317D02*
X18078982Y-14921793D01*
X18078982Y-14921793D02*
X18069458Y-14902746D01*
X18069458Y-14902746D02*
X18069458Y-14893222D01*
X18069458Y-14893222D02*
X18078982Y-14874174D01*
X18078982Y-14874174D02*
X18098030Y-14864650D01*
X18098030Y-14864650D02*
X18126601Y-14864650D01*
X18126601Y-14864650D02*
X18145649Y-14874174D01*
X18221839Y-15074174D02*
X18231363Y-15064650D01*
X18231363Y-15064650D02*
X18250411Y-15036079D01*
X18250411Y-15036079D02*
X18259934Y-15017031D01*
X18259934Y-15017031D02*
X18269458Y-14988460D01*
X18269458Y-14988460D02*
X18278982Y-14940841D01*
X18278982Y-14940841D02*
X18278982Y-14902746D01*
X18278982Y-14902746D02*
X18269458Y-14855127D01*
X18269458Y-14855127D02*
X18259934Y-14826555D01*
X18259934Y-14826555D02*
X18250411Y-14807508D01*
X18250411Y-14807508D02*
X18231363Y-14778936D01*
X18231363Y-14778936D02*
X18221839Y-14769412D01*
D13*
X13116300Y-15100500D02*
X13256300Y-15240500D01*
X13256300Y-15100500D02*
X13116300Y-15240500D01*
X13256300Y-15170500D02*
G75*
G02*
X13116300Y-15170500I-70000J0D01*
G01*
X13116300Y-15170500D02*
G75*
G02*
X13256300Y-15170500I70000J0D01*
G01*
D11*
X13621839Y-15261984D02*
X13507553Y-15261984D01*
X13564696Y-15261984D02*
X13564696Y-15061984D01*
X13564696Y-15061984D02*
X13545648Y-15090555D01*
X13545648Y-15090555D02*
X13526601Y-15109603D01*
X13526601Y-15109603D02*
X13507553Y-15119127D01*
X13707553Y-15242936D02*
X13717077Y-15252460D01*
X13717077Y-15252460D02*
X13707553Y-15261984D01*
X13707553Y-15261984D02*
X13698029Y-15252460D01*
X13698029Y-15252460D02*
X13707553Y-15242936D01*
X13707553Y-15242936D02*
X13707553Y-15261984D01*
X13888505Y-15128650D02*
X13888505Y-15261984D01*
X13840886Y-15052460D02*
X13793267Y-15195317D01*
X13793267Y-15195317D02*
X13917077Y-15195317D01*
X14031362Y-15061984D02*
X14050410Y-15061984D01*
X14050410Y-15061984D02*
X14069458Y-15071508D01*
X14069458Y-15071508D02*
X14078982Y-15081031D01*
X14078982Y-15081031D02*
X14088505Y-15100079D01*
X14088505Y-15100079D02*
X14098029Y-15138174D01*
X14098029Y-15138174D02*
X14098029Y-15185793D01*
X14098029Y-15185793D02*
X14088505Y-15223888D01*
X14088505Y-15223888D02*
X14078982Y-15242936D01*
X14078982Y-15242936D02*
X14069458Y-15252460D01*
X14069458Y-15252460D02*
X14050410Y-15261984D01*
X14050410Y-15261984D02*
X14031362Y-15261984D01*
X14031362Y-15261984D02*
X14012315Y-15252460D01*
X14012315Y-15252460D02*
X14002791Y-15242936D01*
X14002791Y-15242936D02*
X13993267Y-15223888D01*
X13993267Y-15223888D02*
X13983743Y-15185793D01*
X13983743Y-15185793D02*
X13983743Y-15138174D01*
X13983743Y-15138174D02*
X13993267Y-15100079D01*
X13993267Y-15100079D02*
X14002791Y-15081031D01*
X14002791Y-15081031D02*
X14012315Y-15071508D01*
X14012315Y-15071508D02*
X14031362Y-15061984D01*
X14221839Y-15061984D02*
X14240886Y-15061984D01*
X14240886Y-15061984D02*
X14259934Y-15071508D01*
X14259934Y-15071508D02*
X14269458Y-15081031D01*
X14269458Y-15081031D02*
X14278982Y-15100079D01*
X14278982Y-15100079D02*
X14288505Y-15138174D01*
X14288505Y-15138174D02*
X14288505Y-15185793D01*
X14288505Y-15185793D02*
X14278982Y-15223888D01*
X14278982Y-15223888D02*
X14269458Y-15242936D01*
X14269458Y-15242936D02*
X14259934Y-15252460D01*
X14259934Y-15252460D02*
X14240886Y-15261984D01*
X14240886Y-15261984D02*
X14221839Y-15261984D01*
X14221839Y-15261984D02*
X14202791Y-15252460D01*
X14202791Y-15252460D02*
X14193267Y-15242936D01*
X14193267Y-15242936D02*
X14183743Y-15223888D01*
X14183743Y-15223888D02*
X14174220Y-15185793D01*
X14174220Y-15185793D02*
X14174220Y-15138174D01*
X14174220Y-15138174D02*
X14183743Y-15100079D01*
X14183743Y-15100079D02*
X14193267Y-15081031D01*
X14193267Y-15081031D02*
X14202791Y-15071508D01*
X14202791Y-15071508D02*
X14221839Y-15061984D01*
X14374220Y-15261984D02*
X14374220Y-15128650D01*
X14374220Y-15147698D02*
X14383743Y-15138174D01*
X14383743Y-15138174D02*
X14402791Y-15128650D01*
X14402791Y-15128650D02*
X14431363Y-15128650D01*
X14431363Y-15128650D02*
X14450410Y-15138174D01*
X14450410Y-15138174D02*
X14459934Y-15157222D01*
X14459934Y-15157222D02*
X14459934Y-15261984D01*
X14459934Y-15157222D02*
X14469458Y-15138174D01*
X14469458Y-15138174D02*
X14488505Y-15128650D01*
X14488505Y-15128650D02*
X14517077Y-15128650D01*
X14517077Y-15128650D02*
X14536124Y-15138174D01*
X14536124Y-15138174D02*
X14545648Y-15157222D01*
X14545648Y-15157222D02*
X14545648Y-15261984D01*
X14640886Y-15261984D02*
X14640886Y-15128650D01*
X14640886Y-15147698D02*
X14650410Y-15138174D01*
X14650410Y-15138174D02*
X14669458Y-15128650D01*
X14669458Y-15128650D02*
X14698029Y-15128650D01*
X14698029Y-15128650D02*
X14717077Y-15138174D01*
X14717077Y-15138174D02*
X14726601Y-15157222D01*
X14726601Y-15157222D02*
X14726601Y-15261984D01*
X14726601Y-15157222D02*
X14736124Y-15138174D01*
X14736124Y-15138174D02*
X14755172Y-15128650D01*
X14755172Y-15128650D02*
X14783743Y-15128650D01*
X14783743Y-15128650D02*
X14802791Y-15138174D01*
X14802791Y-15138174D02*
X14812315Y-15157222D01*
X14812315Y-15157222D02*
X14812315Y-15261984D01*
X15202791Y-15052460D02*
X15031363Y-15309603D01*
X15459934Y-15061984D02*
X15478982Y-15061984D01*
X15478982Y-15061984D02*
X15498029Y-15071508D01*
X15498029Y-15071508D02*
X15507553Y-15081031D01*
X15507553Y-15081031D02*
X15517077Y-15100079D01*
X15517077Y-15100079D02*
X15526601Y-15138174D01*
X15526601Y-15138174D02*
X15526601Y-15185793D01*
X15526601Y-15185793D02*
X15517077Y-15223888D01*
X15517077Y-15223888D02*
X15507553Y-15242936D01*
X15507553Y-15242936D02*
X15498029Y-15252460D01*
X15498029Y-15252460D02*
X15478982Y-15261984D01*
X15478982Y-15261984D02*
X15459934Y-15261984D01*
X15459934Y-15261984D02*
X15440886Y-15252460D01*
X15440886Y-15252460D02*
X15431363Y-15242936D01*
X15431363Y-15242936D02*
X15421839Y-15223888D01*
X15421839Y-15223888D02*
X15412315Y-15185793D01*
X15412315Y-15185793D02*
X15412315Y-15138174D01*
X15412315Y-15138174D02*
X15421839Y-15100079D01*
X15421839Y-15100079D02*
X15431363Y-15081031D01*
X15431363Y-15081031D02*
X15440886Y-15071508D01*
X15440886Y-15071508D02*
X15459934Y-15061984D01*
X15612315Y-15242936D02*
X15621839Y-15252460D01*
X15621839Y-15252460D02*
X15612315Y-15261984D01*
X15612315Y-15261984D02*
X15602791Y-15252460D01*
X15602791Y-15252460D02*
X15612315Y-15242936D01*
X15612315Y-15242936D02*
X15612315Y-15261984D01*
X15745648Y-15061984D02*
X15764696Y-15061984D01*
X15764696Y-15061984D02*
X15783744Y-15071508D01*
X15783744Y-15071508D02*
X15793267Y-15081031D01*
X15793267Y-15081031D02*
X15802791Y-15100079D01*
X15802791Y-15100079D02*
X15812315Y-15138174D01*
X15812315Y-15138174D02*
X15812315Y-15185793D01*
X15812315Y-15185793D02*
X15802791Y-15223888D01*
X15802791Y-15223888D02*
X15793267Y-15242936D01*
X15793267Y-15242936D02*
X15783744Y-15252460D01*
X15783744Y-15252460D02*
X15764696Y-15261984D01*
X15764696Y-15261984D02*
X15745648Y-15261984D01*
X15745648Y-15261984D02*
X15726601Y-15252460D01*
X15726601Y-15252460D02*
X15717077Y-15242936D01*
X15717077Y-15242936D02*
X15707553Y-15223888D01*
X15707553Y-15223888D02*
X15698029Y-15185793D01*
X15698029Y-15185793D02*
X15698029Y-15138174D01*
X15698029Y-15138174D02*
X15707553Y-15100079D01*
X15707553Y-15100079D02*
X15717077Y-15081031D01*
X15717077Y-15081031D02*
X15726601Y-15071508D01*
X15726601Y-15071508D02*
X15745648Y-15061984D01*
X15993267Y-15061984D02*
X15898029Y-15061984D01*
X15898029Y-15061984D02*
X15888506Y-15157222D01*
X15888506Y-15157222D02*
X15898029Y-15147698D01*
X15898029Y-15147698D02*
X15917077Y-15138174D01*
X15917077Y-15138174D02*
X15964696Y-15138174D01*
X15964696Y-15138174D02*
X15983744Y-15147698D01*
X15983744Y-15147698D02*
X15993267Y-15157222D01*
X15993267Y-15157222D02*
X16002791Y-15176269D01*
X16002791Y-15176269D02*
X16002791Y-15223888D01*
X16002791Y-15223888D02*
X15993267Y-15242936D01*
X15993267Y-15242936D02*
X15983744Y-15252460D01*
X15983744Y-15252460D02*
X15964696Y-15261984D01*
X15964696Y-15261984D02*
X15917077Y-15261984D01*
X15917077Y-15261984D02*
X15898029Y-15252460D01*
X15898029Y-15252460D02*
X15888506Y-15242936D01*
X16183744Y-15061984D02*
X16088506Y-15061984D01*
X16088506Y-15061984D02*
X16078982Y-15157222D01*
X16078982Y-15157222D02*
X16088506Y-15147698D01*
X16088506Y-15147698D02*
X16107553Y-15138174D01*
X16107553Y-15138174D02*
X16155172Y-15138174D01*
X16155172Y-15138174D02*
X16174220Y-15147698D01*
X16174220Y-15147698D02*
X16183744Y-15157222D01*
X16183744Y-15157222D02*
X16193267Y-15176269D01*
X16193267Y-15176269D02*
X16193267Y-15223888D01*
X16193267Y-15223888D02*
X16183744Y-15242936D01*
X16183744Y-15242936D02*
X16174220Y-15252460D01*
X16174220Y-15252460D02*
X16155172Y-15261984D01*
X16155172Y-15261984D02*
X16107553Y-15261984D01*
X16107553Y-15261984D02*
X16088506Y-15252460D01*
X16088506Y-15252460D02*
X16078982Y-15242936D01*
X16383744Y-15261984D02*
X16269458Y-15261984D01*
X16326601Y-15261984D02*
X16326601Y-15061984D01*
X16326601Y-15061984D02*
X16307553Y-15090555D01*
X16307553Y-15090555D02*
X16288506Y-15109603D01*
X16288506Y-15109603D02*
X16269458Y-15119127D01*
X16459934Y-15061984D02*
X16459934Y-15100079D01*
X16536125Y-15061984D02*
X16536125Y-15100079D01*
X16831363Y-15338174D02*
X16821839Y-15328650D01*
X16821839Y-15328650D02*
X16802791Y-15300079D01*
X16802791Y-15300079D02*
X16793268Y-15281031D01*
X16793268Y-15281031D02*
X16783744Y-15252460D01*
X16783744Y-15252460D02*
X16774220Y-15204841D01*
X16774220Y-15204841D02*
X16774220Y-15166746D01*
X16774220Y-15166746D02*
X16783744Y-15119127D01*
X16783744Y-15119127D02*
X16793268Y-15090555D01*
X16793268Y-15090555D02*
X16802791Y-15071508D01*
X16802791Y-15071508D02*
X16821839Y-15042936D01*
X16821839Y-15042936D02*
X16831363Y-15033412D01*
X16936125Y-15147698D02*
X16917077Y-15138174D01*
X16917077Y-15138174D02*
X16907553Y-15128650D01*
X16907553Y-15128650D02*
X16898030Y-15109603D01*
X16898030Y-15109603D02*
X16898030Y-15100079D01*
X16898030Y-15100079D02*
X16907553Y-15081031D01*
X16907553Y-15081031D02*
X16917077Y-15071508D01*
X16917077Y-15071508D02*
X16936125Y-15061984D01*
X16936125Y-15061984D02*
X16974220Y-15061984D01*
X16974220Y-15061984D02*
X16993268Y-15071508D01*
X16993268Y-15071508D02*
X17002791Y-15081031D01*
X17002791Y-15081031D02*
X17012315Y-15100079D01*
X17012315Y-15100079D02*
X17012315Y-15109603D01*
X17012315Y-15109603D02*
X17002791Y-15128650D01*
X17002791Y-15128650D02*
X16993268Y-15138174D01*
X16993268Y-15138174D02*
X16974220Y-15147698D01*
X16974220Y-15147698D02*
X16936125Y-15147698D01*
X16936125Y-15147698D02*
X16917077Y-15157222D01*
X16917077Y-15157222D02*
X16907553Y-15166746D01*
X16907553Y-15166746D02*
X16898030Y-15185793D01*
X16898030Y-15185793D02*
X16898030Y-15223888D01*
X16898030Y-15223888D02*
X16907553Y-15242936D01*
X16907553Y-15242936D02*
X16917077Y-15252460D01*
X16917077Y-15252460D02*
X16936125Y-15261984D01*
X16936125Y-15261984D02*
X16974220Y-15261984D01*
X16974220Y-15261984D02*
X16993268Y-15252460D01*
X16993268Y-15252460D02*
X17002791Y-15242936D01*
X17002791Y-15242936D02*
X17012315Y-15223888D01*
X17012315Y-15223888D02*
X17012315Y-15185793D01*
X17012315Y-15185793D02*
X17002791Y-15166746D01*
X17002791Y-15166746D02*
X16993268Y-15157222D01*
X16993268Y-15157222D02*
X16974220Y-15147698D01*
X17250411Y-15261984D02*
X17250411Y-15061984D01*
X17336125Y-15261984D02*
X17336125Y-15157222D01*
X17336125Y-15157222D02*
X17326601Y-15138174D01*
X17326601Y-15138174D02*
X17307553Y-15128650D01*
X17307553Y-15128650D02*
X17278982Y-15128650D01*
X17278982Y-15128650D02*
X17259934Y-15138174D01*
X17259934Y-15138174D02*
X17250411Y-15147698D01*
X17459934Y-15261984D02*
X17440887Y-15252460D01*
X17440887Y-15252460D02*
X17431363Y-15242936D01*
X17431363Y-15242936D02*
X17421839Y-15223888D01*
X17421839Y-15223888D02*
X17421839Y-15166746D01*
X17421839Y-15166746D02*
X17431363Y-15147698D01*
X17431363Y-15147698D02*
X17440887Y-15138174D01*
X17440887Y-15138174D02*
X17459934Y-15128650D01*
X17459934Y-15128650D02*
X17488506Y-15128650D01*
X17488506Y-15128650D02*
X17507553Y-15138174D01*
X17507553Y-15138174D02*
X17517077Y-15147698D01*
X17517077Y-15147698D02*
X17526601Y-15166746D01*
X17526601Y-15166746D02*
X17526601Y-15223888D01*
X17526601Y-15223888D02*
X17517077Y-15242936D01*
X17517077Y-15242936D02*
X17507553Y-15252460D01*
X17507553Y-15252460D02*
X17488506Y-15261984D01*
X17488506Y-15261984D02*
X17459934Y-15261984D01*
X17640887Y-15261984D02*
X17621839Y-15252460D01*
X17621839Y-15252460D02*
X17612315Y-15233412D01*
X17612315Y-15233412D02*
X17612315Y-15061984D01*
X17793268Y-15252460D02*
X17774220Y-15261984D01*
X17774220Y-15261984D02*
X17736125Y-15261984D01*
X17736125Y-15261984D02*
X17717077Y-15252460D01*
X17717077Y-15252460D02*
X17707553Y-15233412D01*
X17707553Y-15233412D02*
X17707553Y-15157222D01*
X17707553Y-15157222D02*
X17717077Y-15138174D01*
X17717077Y-15138174D02*
X17736125Y-15128650D01*
X17736125Y-15128650D02*
X17774220Y-15128650D01*
X17774220Y-15128650D02*
X17793268Y-15138174D01*
X17793268Y-15138174D02*
X17802792Y-15157222D01*
X17802792Y-15157222D02*
X17802792Y-15176269D01*
X17802792Y-15176269D02*
X17707553Y-15195317D01*
X17878982Y-15252460D02*
X17898030Y-15261984D01*
X17898030Y-15261984D02*
X17936125Y-15261984D01*
X17936125Y-15261984D02*
X17955173Y-15252460D01*
X17955173Y-15252460D02*
X17964696Y-15233412D01*
X17964696Y-15233412D02*
X17964696Y-15223888D01*
X17964696Y-15223888D02*
X17955173Y-15204841D01*
X17955173Y-15204841D02*
X17936125Y-15195317D01*
X17936125Y-15195317D02*
X17907553Y-15195317D01*
X17907553Y-15195317D02*
X17888506Y-15185793D01*
X17888506Y-15185793D02*
X17878982Y-15166746D01*
X17878982Y-15166746D02*
X17878982Y-15157222D01*
X17878982Y-15157222D02*
X17888506Y-15138174D01*
X17888506Y-15138174D02*
X17907553Y-15128650D01*
X17907553Y-15128650D02*
X17936125Y-15128650D01*
X17936125Y-15128650D02*
X17955173Y-15138174D01*
X18031363Y-15338174D02*
X18040887Y-15328650D01*
X18040887Y-15328650D02*
X18059934Y-15300079D01*
X18059934Y-15300079D02*
X18069458Y-15281031D01*
X18069458Y-15281031D02*
X18078982Y-15252460D01*
X18078982Y-15252460D02*
X18088506Y-15204841D01*
X18088506Y-15204841D02*
X18088506Y-15166746D01*
X18088506Y-15166746D02*
X18078982Y-15119127D01*
X18078982Y-15119127D02*
X18069458Y-15090555D01*
X18069458Y-15090555D02*
X18059934Y-15071508D01*
X18059934Y-15071508D02*
X18040887Y-15042936D01*
X18040887Y-15042936D02*
X18031363Y-15033412D01*
M02*
