M48
; DRILL file {KiCad 8.0.1+b2} date 2024-05-03T13:14:29+0200
; FORMAT={-:-/ absolute / inch / decimal}
; #@! TF.CreationDate,2024-05-03T13:14:29+02:00
; #@! TF.GenerationSoftware,Kicad,Pcbnew,8.0.1+b2
; #@! TF.FileFunction,NonPlated,1,2,NPTH
FMAT,2
INCH
; #@! TA.AperFunction,NonPlated,NPTH,ComponentDrill
T1C0.0866
%
G90
G05
T1
X5.6Y-3.0
X5.6Y-5.0
X7.8Y-3.0
X7.8Y-5.0
M30
