M48
; DRILL file {KiCad 8.0.1+b2} date 2024-05-03T13:14:29+0200
; FORMAT={-:-/ absolute / inch / decimal}
; #@! TF.CreationDate,2024-05-03T13:14:29+02:00
; #@! TF.GenerationSoftware,Kicad,Pcbnew,8.0.1+b2
; #@! TF.FileFunction,Plated,1,2,PTH
FMAT,2
INCH
; #@! TA.AperFunction,Plated,PTH,ViaDrill
T1C0.0118
; #@! TA.AperFunction,Plated,PTH,ComponentDrill
T2C0.0276
; #@! TA.AperFunction,Plated,PTH,ComponentDrill
T3C0.0295
; #@! TA.AperFunction,Plated,PTH,ComponentDrill
T4C0.0315
; #@! TA.AperFunction,Plated,PTH,ComponentDrill
T5C0.0394
; #@! TA.AperFunction,Plated,PTH,ComponentDrill
T6C0.0551
%
G90
G05
T1
X5.9Y-4.46
X5.92Y-4.0
X6.02Y-3.78
X6.12Y-4.08
X6.12Y-4.26
X6.22Y-4.68
X6.4Y-4.4
X6.42Y-4.14
X6.72Y-3.9
X6.72Y-4.4
X6.96Y-3.84
X7.28Y-4.1
X7.46Y-4.32
X7.68Y-4.18
T2
X5.62Y-3.87
X5.62Y-4.17
X5.82Y-3.87
X5.82Y-4.17
X5.9Y-4.37
X5.9Y-4.67
X6.02Y-3.87
X6.02Y-4.17
X6.06Y-4.36
X6.06Y-4.66
X6.22Y-3.86
X6.22Y-4.16
X6.65Y-3.76
X6.95Y-3.76
X7.11Y-3.76
X7.41Y-3.76
T3
X7.24Y-3.56
X7.29Y-3.56
X7.34Y-3.56
X7.36Y-4.02
X7.41Y-4.02
X7.46Y-4.02
T4
X5.6Y-4.3304
X5.6Y-4.6296
X6.0608Y-4.94
X6.36Y-4.94
X6.86Y-4.02
X6.86Y-4.12
X6.86Y-4.22
X6.86Y-4.32
X7.16Y-4.02
X7.16Y-4.12
X7.16Y-4.22
X7.16Y-4.32
T5
X5.42Y-3.96
X5.42Y-4.06
X6.28Y-4.44
X6.28Y-4.54
X6.72Y-4.7
X6.82Y-3.06
X6.82Y-4.7
X6.92Y-3.06
X6.92Y-4.7
X7.26Y-3.06
X7.36Y-3.06
X7.46Y-4.42
X7.46Y-4.52
T6
X6.04Y-3.28
X6.42Y-3.56
X6.54Y-3.28
X6.84Y-3.28
X6.92Y-3.56
X7.34Y-3.28
X7.6Y-3.28
X7.6Y-3.78
M30
