%TF.GenerationSoftware,KiCad,Pcbnew,8.0.1+b2*%
%TF.CreationDate,2024-05-03T13:14:29+02:00*%
%TF.ProjectId,lfbrmr,6c666272-6d72-42e6-9b69-6361645f7063,rev?*%
%TF.SameCoordinates,Original*%
%TF.FileFunction,Drillmap*%
%TF.FilePolarity,Positive*%
%FSLAX45Y45*%
G04 Gerber Fmt 4.5, Leading zero omitted, Abs format (unit mm)*
G04 Created by KiCad (PCBNEW 8.0.1+b2) date 2024-05-03 13:14:29*
%MOMM*%
%LPD*%
G01*
G04 APERTURE LIST*
%ADD10C,0.050000*%
%ADD11C,0.200000*%
%ADD12C,0.220000*%
G04 APERTURE END LIST*
D10*
X20320000Y-13208000D02*
X13258800Y-13208000D01*
X13258800Y-6604000D01*
X20320000Y-6604000D01*
X20320000Y-13208000D01*
D11*
D12*
X14114000Y-7510000D02*
X14334000Y-7730000D01*
X14334000Y-7510000D02*
X14114000Y-7730000D01*
X14114000Y-12590000D02*
X14334000Y-12810000D01*
X14334000Y-12590000D02*
X14114000Y-12810000D01*
X19702000Y-7510000D02*
X19922000Y-7730000D01*
X19922000Y-7510000D02*
X19702000Y-7730000D01*
X19702000Y-12590000D02*
X19922000Y-12810000D01*
X19922000Y-12590000D02*
X19702000Y-12810000D01*
D11*
X13517077Y-13521984D02*
X13517077Y-13321984D01*
X13517077Y-13321984D02*
X13564696Y-13321984D01*
X13564696Y-13321984D02*
X13593267Y-13331508D01*
X13593267Y-13331508D02*
X13612315Y-13350555D01*
X13612315Y-13350555D02*
X13621839Y-13369603D01*
X13621839Y-13369603D02*
X13631362Y-13407698D01*
X13631362Y-13407698D02*
X13631362Y-13436269D01*
X13631362Y-13436269D02*
X13621839Y-13474365D01*
X13621839Y-13474365D02*
X13612315Y-13493412D01*
X13612315Y-13493412D02*
X13593267Y-13512460D01*
X13593267Y-13512460D02*
X13564696Y-13521984D01*
X13564696Y-13521984D02*
X13517077Y-13521984D01*
X13717077Y-13521984D02*
X13717077Y-13388650D01*
X13717077Y-13426746D02*
X13726601Y-13407698D01*
X13726601Y-13407698D02*
X13736124Y-13398174D01*
X13736124Y-13398174D02*
X13755172Y-13388650D01*
X13755172Y-13388650D02*
X13774220Y-13388650D01*
X13840886Y-13521984D02*
X13840886Y-13388650D01*
X13840886Y-13321984D02*
X13831362Y-13331508D01*
X13831362Y-13331508D02*
X13840886Y-13341031D01*
X13840886Y-13341031D02*
X13850410Y-13331508D01*
X13850410Y-13331508D02*
X13840886Y-13321984D01*
X13840886Y-13321984D02*
X13840886Y-13341031D01*
X13964696Y-13521984D02*
X13945648Y-13512460D01*
X13945648Y-13512460D02*
X13936124Y-13493412D01*
X13936124Y-13493412D02*
X13936124Y-13321984D01*
X14069458Y-13521984D02*
X14050410Y-13512460D01*
X14050410Y-13512460D02*
X14040886Y-13493412D01*
X14040886Y-13493412D02*
X14040886Y-13321984D01*
X14298029Y-13521984D02*
X14298029Y-13321984D01*
X14298029Y-13321984D02*
X14364696Y-13464841D01*
X14364696Y-13464841D02*
X14431362Y-13321984D01*
X14431362Y-13321984D02*
X14431362Y-13521984D01*
X14612315Y-13521984D02*
X14612315Y-13417222D01*
X14612315Y-13417222D02*
X14602791Y-13398174D01*
X14602791Y-13398174D02*
X14583743Y-13388650D01*
X14583743Y-13388650D02*
X14545648Y-13388650D01*
X14545648Y-13388650D02*
X14526601Y-13398174D01*
X14612315Y-13512460D02*
X14593267Y-13521984D01*
X14593267Y-13521984D02*
X14545648Y-13521984D01*
X14545648Y-13521984D02*
X14526601Y-13512460D01*
X14526601Y-13512460D02*
X14517077Y-13493412D01*
X14517077Y-13493412D02*
X14517077Y-13474365D01*
X14517077Y-13474365D02*
X14526601Y-13455317D01*
X14526601Y-13455317D02*
X14545648Y-13445793D01*
X14545648Y-13445793D02*
X14593267Y-13445793D01*
X14593267Y-13445793D02*
X14612315Y-13436269D01*
X14707553Y-13388650D02*
X14707553Y-13588650D01*
X14707553Y-13398174D02*
X14726601Y-13388650D01*
X14726601Y-13388650D02*
X14764696Y-13388650D01*
X14764696Y-13388650D02*
X14783743Y-13398174D01*
X14783743Y-13398174D02*
X14793267Y-13407698D01*
X14793267Y-13407698D02*
X14802791Y-13426746D01*
X14802791Y-13426746D02*
X14802791Y-13483888D01*
X14802791Y-13483888D02*
X14793267Y-13502936D01*
X14793267Y-13502936D02*
X14783743Y-13512460D01*
X14783743Y-13512460D02*
X14764696Y-13521984D01*
X14764696Y-13521984D02*
X14726601Y-13521984D01*
X14726601Y-13521984D02*
X14707553Y-13512460D01*
X14888505Y-13502936D02*
X14898029Y-13512460D01*
X14898029Y-13512460D02*
X14888505Y-13521984D01*
X14888505Y-13521984D02*
X14878982Y-13512460D01*
X14878982Y-13512460D02*
X14888505Y-13502936D01*
X14888505Y-13502936D02*
X14888505Y-13521984D01*
X14888505Y-13398174D02*
X14898029Y-13407698D01*
X14898029Y-13407698D02*
X14888505Y-13417222D01*
X14888505Y-13417222D02*
X14878982Y-13407698D01*
X14878982Y-13407698D02*
X14888505Y-13398174D01*
X14888505Y-13398174D02*
X14888505Y-13417222D01*
X13056300Y-13750500D02*
X13256300Y-13950500D01*
X13256300Y-13750500D02*
X13056300Y-13950500D01*
X13507553Y-13761031D02*
X13517077Y-13751508D01*
X13517077Y-13751508D02*
X13536124Y-13741984D01*
X13536124Y-13741984D02*
X13583743Y-13741984D01*
X13583743Y-13741984D02*
X13602791Y-13751508D01*
X13602791Y-13751508D02*
X13612315Y-13761031D01*
X13612315Y-13761031D02*
X13621839Y-13780079D01*
X13621839Y-13780079D02*
X13621839Y-13799127D01*
X13621839Y-13799127D02*
X13612315Y-13827698D01*
X13612315Y-13827698D02*
X13498029Y-13941984D01*
X13498029Y-13941984D02*
X13621839Y-13941984D01*
X13707553Y-13922936D02*
X13717077Y-13932460D01*
X13717077Y-13932460D02*
X13707553Y-13941984D01*
X13707553Y-13941984D02*
X13698029Y-13932460D01*
X13698029Y-13932460D02*
X13707553Y-13922936D01*
X13707553Y-13922936D02*
X13707553Y-13941984D01*
X13793267Y-13761031D02*
X13802791Y-13751508D01*
X13802791Y-13751508D02*
X13821839Y-13741984D01*
X13821839Y-13741984D02*
X13869458Y-13741984D01*
X13869458Y-13741984D02*
X13888505Y-13751508D01*
X13888505Y-13751508D02*
X13898029Y-13761031D01*
X13898029Y-13761031D02*
X13907553Y-13780079D01*
X13907553Y-13780079D02*
X13907553Y-13799127D01*
X13907553Y-13799127D02*
X13898029Y-13827698D01*
X13898029Y-13827698D02*
X13783743Y-13941984D01*
X13783743Y-13941984D02*
X13907553Y-13941984D01*
X14031362Y-13741984D02*
X14050410Y-13741984D01*
X14050410Y-13741984D02*
X14069458Y-13751508D01*
X14069458Y-13751508D02*
X14078982Y-13761031D01*
X14078982Y-13761031D02*
X14088505Y-13780079D01*
X14088505Y-13780079D02*
X14098029Y-13818174D01*
X14098029Y-13818174D02*
X14098029Y-13865793D01*
X14098029Y-13865793D02*
X14088505Y-13903888D01*
X14088505Y-13903888D02*
X14078982Y-13922936D01*
X14078982Y-13922936D02*
X14069458Y-13932460D01*
X14069458Y-13932460D02*
X14050410Y-13941984D01*
X14050410Y-13941984D02*
X14031362Y-13941984D01*
X14031362Y-13941984D02*
X14012315Y-13932460D01*
X14012315Y-13932460D02*
X14002791Y-13922936D01*
X14002791Y-13922936D02*
X13993267Y-13903888D01*
X13993267Y-13903888D02*
X13983743Y-13865793D01*
X13983743Y-13865793D02*
X13983743Y-13818174D01*
X13983743Y-13818174D02*
X13993267Y-13780079D01*
X13993267Y-13780079D02*
X14002791Y-13761031D01*
X14002791Y-13761031D02*
X14012315Y-13751508D01*
X14012315Y-13751508D02*
X14031362Y-13741984D01*
X14221839Y-13741984D02*
X14240886Y-13741984D01*
X14240886Y-13741984D02*
X14259934Y-13751508D01*
X14259934Y-13751508D02*
X14269458Y-13761031D01*
X14269458Y-13761031D02*
X14278982Y-13780079D01*
X14278982Y-13780079D02*
X14288505Y-13818174D01*
X14288505Y-13818174D02*
X14288505Y-13865793D01*
X14288505Y-13865793D02*
X14278982Y-13903888D01*
X14278982Y-13903888D02*
X14269458Y-13922936D01*
X14269458Y-13922936D02*
X14259934Y-13932460D01*
X14259934Y-13932460D02*
X14240886Y-13941984D01*
X14240886Y-13941984D02*
X14221839Y-13941984D01*
X14221839Y-13941984D02*
X14202791Y-13932460D01*
X14202791Y-13932460D02*
X14193267Y-13922936D01*
X14193267Y-13922936D02*
X14183743Y-13903888D01*
X14183743Y-13903888D02*
X14174220Y-13865793D01*
X14174220Y-13865793D02*
X14174220Y-13818174D01*
X14174220Y-13818174D02*
X14183743Y-13780079D01*
X14183743Y-13780079D02*
X14193267Y-13761031D01*
X14193267Y-13761031D02*
X14202791Y-13751508D01*
X14202791Y-13751508D02*
X14221839Y-13741984D01*
X14374220Y-13941984D02*
X14374220Y-13808650D01*
X14374220Y-13827698D02*
X14383743Y-13818174D01*
X14383743Y-13818174D02*
X14402791Y-13808650D01*
X14402791Y-13808650D02*
X14431363Y-13808650D01*
X14431363Y-13808650D02*
X14450410Y-13818174D01*
X14450410Y-13818174D02*
X14459934Y-13837222D01*
X14459934Y-13837222D02*
X14459934Y-13941984D01*
X14459934Y-13837222D02*
X14469458Y-13818174D01*
X14469458Y-13818174D02*
X14488505Y-13808650D01*
X14488505Y-13808650D02*
X14517077Y-13808650D01*
X14517077Y-13808650D02*
X14536124Y-13818174D01*
X14536124Y-13818174D02*
X14545648Y-13837222D01*
X14545648Y-13837222D02*
X14545648Y-13941984D01*
X14640886Y-13941984D02*
X14640886Y-13808650D01*
X14640886Y-13827698D02*
X14650410Y-13818174D01*
X14650410Y-13818174D02*
X14669458Y-13808650D01*
X14669458Y-13808650D02*
X14698029Y-13808650D01*
X14698029Y-13808650D02*
X14717077Y-13818174D01*
X14717077Y-13818174D02*
X14726601Y-13837222D01*
X14726601Y-13837222D02*
X14726601Y-13941984D01*
X14726601Y-13837222D02*
X14736124Y-13818174D01*
X14736124Y-13818174D02*
X14755172Y-13808650D01*
X14755172Y-13808650D02*
X14783743Y-13808650D01*
X14783743Y-13808650D02*
X14802791Y-13818174D01*
X14802791Y-13818174D02*
X14812315Y-13837222D01*
X14812315Y-13837222D02*
X14812315Y-13941984D01*
X15202791Y-13732460D02*
X15031363Y-13989603D01*
X15459934Y-13741984D02*
X15478982Y-13741984D01*
X15478982Y-13741984D02*
X15498029Y-13751508D01*
X15498029Y-13751508D02*
X15507553Y-13761031D01*
X15507553Y-13761031D02*
X15517077Y-13780079D01*
X15517077Y-13780079D02*
X15526601Y-13818174D01*
X15526601Y-13818174D02*
X15526601Y-13865793D01*
X15526601Y-13865793D02*
X15517077Y-13903888D01*
X15517077Y-13903888D02*
X15507553Y-13922936D01*
X15507553Y-13922936D02*
X15498029Y-13932460D01*
X15498029Y-13932460D02*
X15478982Y-13941984D01*
X15478982Y-13941984D02*
X15459934Y-13941984D01*
X15459934Y-13941984D02*
X15440886Y-13932460D01*
X15440886Y-13932460D02*
X15431363Y-13922936D01*
X15431363Y-13922936D02*
X15421839Y-13903888D01*
X15421839Y-13903888D02*
X15412315Y-13865793D01*
X15412315Y-13865793D02*
X15412315Y-13818174D01*
X15412315Y-13818174D02*
X15421839Y-13780079D01*
X15421839Y-13780079D02*
X15431363Y-13761031D01*
X15431363Y-13761031D02*
X15440886Y-13751508D01*
X15440886Y-13751508D02*
X15459934Y-13741984D01*
X15612315Y-13922936D02*
X15621839Y-13932460D01*
X15621839Y-13932460D02*
X15612315Y-13941984D01*
X15612315Y-13941984D02*
X15602791Y-13932460D01*
X15602791Y-13932460D02*
X15612315Y-13922936D01*
X15612315Y-13922936D02*
X15612315Y-13941984D01*
X15745648Y-13741984D02*
X15764696Y-13741984D01*
X15764696Y-13741984D02*
X15783744Y-13751508D01*
X15783744Y-13751508D02*
X15793267Y-13761031D01*
X15793267Y-13761031D02*
X15802791Y-13780079D01*
X15802791Y-13780079D02*
X15812315Y-13818174D01*
X15812315Y-13818174D02*
X15812315Y-13865793D01*
X15812315Y-13865793D02*
X15802791Y-13903888D01*
X15802791Y-13903888D02*
X15793267Y-13922936D01*
X15793267Y-13922936D02*
X15783744Y-13932460D01*
X15783744Y-13932460D02*
X15764696Y-13941984D01*
X15764696Y-13941984D02*
X15745648Y-13941984D01*
X15745648Y-13941984D02*
X15726601Y-13932460D01*
X15726601Y-13932460D02*
X15717077Y-13922936D01*
X15717077Y-13922936D02*
X15707553Y-13903888D01*
X15707553Y-13903888D02*
X15698029Y-13865793D01*
X15698029Y-13865793D02*
X15698029Y-13818174D01*
X15698029Y-13818174D02*
X15707553Y-13780079D01*
X15707553Y-13780079D02*
X15717077Y-13761031D01*
X15717077Y-13761031D02*
X15726601Y-13751508D01*
X15726601Y-13751508D02*
X15745648Y-13741984D01*
X15926601Y-13827698D02*
X15907553Y-13818174D01*
X15907553Y-13818174D02*
X15898029Y-13808650D01*
X15898029Y-13808650D02*
X15888506Y-13789603D01*
X15888506Y-13789603D02*
X15888506Y-13780079D01*
X15888506Y-13780079D02*
X15898029Y-13761031D01*
X15898029Y-13761031D02*
X15907553Y-13751508D01*
X15907553Y-13751508D02*
X15926601Y-13741984D01*
X15926601Y-13741984D02*
X15964696Y-13741984D01*
X15964696Y-13741984D02*
X15983744Y-13751508D01*
X15983744Y-13751508D02*
X15993267Y-13761031D01*
X15993267Y-13761031D02*
X16002791Y-13780079D01*
X16002791Y-13780079D02*
X16002791Y-13789603D01*
X16002791Y-13789603D02*
X15993267Y-13808650D01*
X15993267Y-13808650D02*
X15983744Y-13818174D01*
X15983744Y-13818174D02*
X15964696Y-13827698D01*
X15964696Y-13827698D02*
X15926601Y-13827698D01*
X15926601Y-13827698D02*
X15907553Y-13837222D01*
X15907553Y-13837222D02*
X15898029Y-13846746D01*
X15898029Y-13846746D02*
X15888506Y-13865793D01*
X15888506Y-13865793D02*
X15888506Y-13903888D01*
X15888506Y-13903888D02*
X15898029Y-13922936D01*
X15898029Y-13922936D02*
X15907553Y-13932460D01*
X15907553Y-13932460D02*
X15926601Y-13941984D01*
X15926601Y-13941984D02*
X15964696Y-13941984D01*
X15964696Y-13941984D02*
X15983744Y-13932460D01*
X15983744Y-13932460D02*
X15993267Y-13922936D01*
X15993267Y-13922936D02*
X16002791Y-13903888D01*
X16002791Y-13903888D02*
X16002791Y-13865793D01*
X16002791Y-13865793D02*
X15993267Y-13846746D01*
X15993267Y-13846746D02*
X15983744Y-13837222D01*
X15983744Y-13837222D02*
X15964696Y-13827698D01*
X16174220Y-13741984D02*
X16136125Y-13741984D01*
X16136125Y-13741984D02*
X16117077Y-13751508D01*
X16117077Y-13751508D02*
X16107553Y-13761031D01*
X16107553Y-13761031D02*
X16088506Y-13789603D01*
X16088506Y-13789603D02*
X16078982Y-13827698D01*
X16078982Y-13827698D02*
X16078982Y-13903888D01*
X16078982Y-13903888D02*
X16088506Y-13922936D01*
X16088506Y-13922936D02*
X16098029Y-13932460D01*
X16098029Y-13932460D02*
X16117077Y-13941984D01*
X16117077Y-13941984D02*
X16155172Y-13941984D01*
X16155172Y-13941984D02*
X16174220Y-13932460D01*
X16174220Y-13932460D02*
X16183744Y-13922936D01*
X16183744Y-13922936D02*
X16193267Y-13903888D01*
X16193267Y-13903888D02*
X16193267Y-13856269D01*
X16193267Y-13856269D02*
X16183744Y-13837222D01*
X16183744Y-13837222D02*
X16174220Y-13827698D01*
X16174220Y-13827698D02*
X16155172Y-13818174D01*
X16155172Y-13818174D02*
X16117077Y-13818174D01*
X16117077Y-13818174D02*
X16098029Y-13827698D01*
X16098029Y-13827698D02*
X16088506Y-13837222D01*
X16088506Y-13837222D02*
X16078982Y-13856269D01*
X16364696Y-13741984D02*
X16326601Y-13741984D01*
X16326601Y-13741984D02*
X16307553Y-13751508D01*
X16307553Y-13751508D02*
X16298029Y-13761031D01*
X16298029Y-13761031D02*
X16278982Y-13789603D01*
X16278982Y-13789603D02*
X16269458Y-13827698D01*
X16269458Y-13827698D02*
X16269458Y-13903888D01*
X16269458Y-13903888D02*
X16278982Y-13922936D01*
X16278982Y-13922936D02*
X16288506Y-13932460D01*
X16288506Y-13932460D02*
X16307553Y-13941984D01*
X16307553Y-13941984D02*
X16345648Y-13941984D01*
X16345648Y-13941984D02*
X16364696Y-13932460D01*
X16364696Y-13932460D02*
X16374220Y-13922936D01*
X16374220Y-13922936D02*
X16383744Y-13903888D01*
X16383744Y-13903888D02*
X16383744Y-13856269D01*
X16383744Y-13856269D02*
X16374220Y-13837222D01*
X16374220Y-13837222D02*
X16364696Y-13827698D01*
X16364696Y-13827698D02*
X16345648Y-13818174D01*
X16345648Y-13818174D02*
X16307553Y-13818174D01*
X16307553Y-13818174D02*
X16288506Y-13827698D01*
X16288506Y-13827698D02*
X16278982Y-13837222D01*
X16278982Y-13837222D02*
X16269458Y-13856269D01*
X16459934Y-13741984D02*
X16459934Y-13780079D01*
X16536125Y-13741984D02*
X16536125Y-13780079D01*
X16831363Y-14018174D02*
X16821839Y-14008650D01*
X16821839Y-14008650D02*
X16802791Y-13980079D01*
X16802791Y-13980079D02*
X16793268Y-13961031D01*
X16793268Y-13961031D02*
X16783744Y-13932460D01*
X16783744Y-13932460D02*
X16774220Y-13884841D01*
X16774220Y-13884841D02*
X16774220Y-13846746D01*
X16774220Y-13846746D02*
X16783744Y-13799127D01*
X16783744Y-13799127D02*
X16793268Y-13770555D01*
X16793268Y-13770555D02*
X16802791Y-13751508D01*
X16802791Y-13751508D02*
X16821839Y-13722936D01*
X16821839Y-13722936D02*
X16831363Y-13713412D01*
X16993268Y-13808650D02*
X16993268Y-13941984D01*
X16945649Y-13732460D02*
X16898030Y-13875317D01*
X16898030Y-13875317D02*
X17021839Y-13875317D01*
X17250411Y-13941984D02*
X17250411Y-13741984D01*
X17336125Y-13941984D02*
X17336125Y-13837222D01*
X17336125Y-13837222D02*
X17326601Y-13818174D01*
X17326601Y-13818174D02*
X17307553Y-13808650D01*
X17307553Y-13808650D02*
X17278982Y-13808650D01*
X17278982Y-13808650D02*
X17259934Y-13818174D01*
X17259934Y-13818174D02*
X17250411Y-13827698D01*
X17459934Y-13941984D02*
X17440887Y-13932460D01*
X17440887Y-13932460D02*
X17431363Y-13922936D01*
X17431363Y-13922936D02*
X17421839Y-13903888D01*
X17421839Y-13903888D02*
X17421839Y-13846746D01*
X17421839Y-13846746D02*
X17431363Y-13827698D01*
X17431363Y-13827698D02*
X17440887Y-13818174D01*
X17440887Y-13818174D02*
X17459934Y-13808650D01*
X17459934Y-13808650D02*
X17488506Y-13808650D01*
X17488506Y-13808650D02*
X17507553Y-13818174D01*
X17507553Y-13818174D02*
X17517077Y-13827698D01*
X17517077Y-13827698D02*
X17526601Y-13846746D01*
X17526601Y-13846746D02*
X17526601Y-13903888D01*
X17526601Y-13903888D02*
X17517077Y-13922936D01*
X17517077Y-13922936D02*
X17507553Y-13932460D01*
X17507553Y-13932460D02*
X17488506Y-13941984D01*
X17488506Y-13941984D02*
X17459934Y-13941984D01*
X17640887Y-13941984D02*
X17621839Y-13932460D01*
X17621839Y-13932460D02*
X17612315Y-13913412D01*
X17612315Y-13913412D02*
X17612315Y-13741984D01*
X17793268Y-13932460D02*
X17774220Y-13941984D01*
X17774220Y-13941984D02*
X17736125Y-13941984D01*
X17736125Y-13941984D02*
X17717077Y-13932460D01*
X17717077Y-13932460D02*
X17707553Y-13913412D01*
X17707553Y-13913412D02*
X17707553Y-13837222D01*
X17707553Y-13837222D02*
X17717077Y-13818174D01*
X17717077Y-13818174D02*
X17736125Y-13808650D01*
X17736125Y-13808650D02*
X17774220Y-13808650D01*
X17774220Y-13808650D02*
X17793268Y-13818174D01*
X17793268Y-13818174D02*
X17802792Y-13837222D01*
X17802792Y-13837222D02*
X17802792Y-13856269D01*
X17802792Y-13856269D02*
X17707553Y-13875317D01*
X17878982Y-13932460D02*
X17898030Y-13941984D01*
X17898030Y-13941984D02*
X17936125Y-13941984D01*
X17936125Y-13941984D02*
X17955173Y-13932460D01*
X17955173Y-13932460D02*
X17964696Y-13913412D01*
X17964696Y-13913412D02*
X17964696Y-13903888D01*
X17964696Y-13903888D02*
X17955173Y-13884841D01*
X17955173Y-13884841D02*
X17936125Y-13875317D01*
X17936125Y-13875317D02*
X17907553Y-13875317D01*
X17907553Y-13875317D02*
X17888506Y-13865793D01*
X17888506Y-13865793D02*
X17878982Y-13846746D01*
X17878982Y-13846746D02*
X17878982Y-13837222D01*
X17878982Y-13837222D02*
X17888506Y-13818174D01*
X17888506Y-13818174D02*
X17907553Y-13808650D01*
X17907553Y-13808650D02*
X17936125Y-13808650D01*
X17936125Y-13808650D02*
X17955173Y-13818174D01*
X18031363Y-14018174D02*
X18040887Y-14008650D01*
X18040887Y-14008650D02*
X18059934Y-13980079D01*
X18059934Y-13980079D02*
X18069458Y-13961031D01*
X18069458Y-13961031D02*
X18078982Y-13932460D01*
X18078982Y-13932460D02*
X18088506Y-13884841D01*
X18088506Y-13884841D02*
X18088506Y-13846746D01*
X18088506Y-13846746D02*
X18078982Y-13799127D01*
X18078982Y-13799127D02*
X18069458Y-13770555D01*
X18069458Y-13770555D02*
X18059934Y-13751508D01*
X18059934Y-13751508D02*
X18040887Y-13722936D01*
X18040887Y-13722936D02*
X18031363Y-13713412D01*
X18393268Y-14018174D02*
X18383744Y-14008650D01*
X18383744Y-14008650D02*
X18364696Y-13980079D01*
X18364696Y-13980079D02*
X18355173Y-13961031D01*
X18355173Y-13961031D02*
X18345649Y-13932460D01*
X18345649Y-13932460D02*
X18336125Y-13884841D01*
X18336125Y-13884841D02*
X18336125Y-13846746D01*
X18336125Y-13846746D02*
X18345649Y-13799127D01*
X18345649Y-13799127D02*
X18355173Y-13770555D01*
X18355173Y-13770555D02*
X18364696Y-13751508D01*
X18364696Y-13751508D02*
X18383744Y-13722936D01*
X18383744Y-13722936D02*
X18393268Y-13713412D01*
X18469458Y-13808650D02*
X18469458Y-13941984D01*
X18469458Y-13827698D02*
X18478982Y-13818174D01*
X18478982Y-13818174D02*
X18498030Y-13808650D01*
X18498030Y-13808650D02*
X18526601Y-13808650D01*
X18526601Y-13808650D02*
X18545649Y-13818174D01*
X18545649Y-13818174D02*
X18555173Y-13837222D01*
X18555173Y-13837222D02*
X18555173Y-13941984D01*
X18678982Y-13941984D02*
X18659934Y-13932460D01*
X18659934Y-13932460D02*
X18650411Y-13922936D01*
X18650411Y-13922936D02*
X18640887Y-13903888D01*
X18640887Y-13903888D02*
X18640887Y-13846746D01*
X18640887Y-13846746D02*
X18650411Y-13827698D01*
X18650411Y-13827698D02*
X18659934Y-13818174D01*
X18659934Y-13818174D02*
X18678982Y-13808650D01*
X18678982Y-13808650D02*
X18707554Y-13808650D01*
X18707554Y-13808650D02*
X18726601Y-13818174D01*
X18726601Y-13818174D02*
X18736125Y-13827698D01*
X18736125Y-13827698D02*
X18745649Y-13846746D01*
X18745649Y-13846746D02*
X18745649Y-13903888D01*
X18745649Y-13903888D02*
X18736125Y-13922936D01*
X18736125Y-13922936D02*
X18726601Y-13932460D01*
X18726601Y-13932460D02*
X18707554Y-13941984D01*
X18707554Y-13941984D02*
X18678982Y-13941984D01*
X18802792Y-13808650D02*
X18878982Y-13808650D01*
X18831363Y-13741984D02*
X18831363Y-13913412D01*
X18831363Y-13913412D02*
X18840887Y-13932460D01*
X18840887Y-13932460D02*
X18859934Y-13941984D01*
X18859934Y-13941984D02*
X18878982Y-13941984D01*
X19098030Y-13808650D02*
X19098030Y-14008650D01*
X19098030Y-13818174D02*
X19117077Y-13808650D01*
X19117077Y-13808650D02*
X19155173Y-13808650D01*
X19155173Y-13808650D02*
X19174220Y-13818174D01*
X19174220Y-13818174D02*
X19183744Y-13827698D01*
X19183744Y-13827698D02*
X19193268Y-13846746D01*
X19193268Y-13846746D02*
X19193268Y-13903888D01*
X19193268Y-13903888D02*
X19183744Y-13922936D01*
X19183744Y-13922936D02*
X19174220Y-13932460D01*
X19174220Y-13932460D02*
X19155173Y-13941984D01*
X19155173Y-13941984D02*
X19117077Y-13941984D01*
X19117077Y-13941984D02*
X19098030Y-13932460D01*
X19307554Y-13941984D02*
X19288506Y-13932460D01*
X19288506Y-13932460D02*
X19278982Y-13913412D01*
X19278982Y-13913412D02*
X19278982Y-13741984D01*
X19469458Y-13941984D02*
X19469458Y-13837222D01*
X19469458Y-13837222D02*
X19459935Y-13818174D01*
X19459935Y-13818174D02*
X19440887Y-13808650D01*
X19440887Y-13808650D02*
X19402792Y-13808650D01*
X19402792Y-13808650D02*
X19383744Y-13818174D01*
X19469458Y-13932460D02*
X19450411Y-13941984D01*
X19450411Y-13941984D02*
X19402792Y-13941984D01*
X19402792Y-13941984D02*
X19383744Y-13932460D01*
X19383744Y-13932460D02*
X19374220Y-13913412D01*
X19374220Y-13913412D02*
X19374220Y-13894365D01*
X19374220Y-13894365D02*
X19383744Y-13875317D01*
X19383744Y-13875317D02*
X19402792Y-13865793D01*
X19402792Y-13865793D02*
X19450411Y-13865793D01*
X19450411Y-13865793D02*
X19469458Y-13856269D01*
X19536125Y-13808650D02*
X19612315Y-13808650D01*
X19564696Y-13741984D02*
X19564696Y-13913412D01*
X19564696Y-13913412D02*
X19574220Y-13932460D01*
X19574220Y-13932460D02*
X19593268Y-13941984D01*
X19593268Y-13941984D02*
X19612315Y-13941984D01*
X19755173Y-13932460D02*
X19736125Y-13941984D01*
X19736125Y-13941984D02*
X19698030Y-13941984D01*
X19698030Y-13941984D02*
X19678982Y-13932460D01*
X19678982Y-13932460D02*
X19669458Y-13913412D01*
X19669458Y-13913412D02*
X19669458Y-13837222D01*
X19669458Y-13837222D02*
X19678982Y-13818174D01*
X19678982Y-13818174D02*
X19698030Y-13808650D01*
X19698030Y-13808650D02*
X19736125Y-13808650D01*
X19736125Y-13808650D02*
X19755173Y-13818174D01*
X19755173Y-13818174D02*
X19764696Y-13837222D01*
X19764696Y-13837222D02*
X19764696Y-13856269D01*
X19764696Y-13856269D02*
X19669458Y-13875317D01*
X19936125Y-13941984D02*
X19936125Y-13741984D01*
X19936125Y-13932460D02*
X19917077Y-13941984D01*
X19917077Y-13941984D02*
X19878982Y-13941984D01*
X19878982Y-13941984D02*
X19859935Y-13932460D01*
X19859935Y-13932460D02*
X19850411Y-13922936D01*
X19850411Y-13922936D02*
X19840887Y-13903888D01*
X19840887Y-13903888D02*
X19840887Y-13846746D01*
X19840887Y-13846746D02*
X19850411Y-13827698D01*
X19850411Y-13827698D02*
X19859935Y-13818174D01*
X19859935Y-13818174D02*
X19878982Y-13808650D01*
X19878982Y-13808650D02*
X19917077Y-13808650D01*
X19917077Y-13808650D02*
X19936125Y-13818174D01*
X20012316Y-14018174D02*
X20021839Y-14008650D01*
X20021839Y-14008650D02*
X20040887Y-13980079D01*
X20040887Y-13980079D02*
X20050411Y-13961031D01*
X20050411Y-13961031D02*
X20059935Y-13932460D01*
X20059935Y-13932460D02*
X20069458Y-13884841D01*
X20069458Y-13884841D02*
X20069458Y-13846746D01*
X20069458Y-13846746D02*
X20059935Y-13799127D01*
X20059935Y-13799127D02*
X20050411Y-13770555D01*
X20050411Y-13770555D02*
X20040887Y-13751508D01*
X20040887Y-13751508D02*
X20021839Y-13722936D01*
X20021839Y-13722936D02*
X20012316Y-13713412D01*
M02*
